G04 #@! TF.GenerationSoftware,KiCad,Pcbnew,5.1.6-c6e7f7d~87~ubuntu18.04.1*
G04 #@! TF.CreationDate,2020-08-07T23:20:09-04:00*
G04 #@! TF.ProjectId,led_tester,6c65645f-7465-4737-9465-722e6b696361,rev?*
G04 #@! TF.SameCoordinates,Original*
G04 #@! TF.FileFunction,Paste,Top*
G04 #@! TF.FilePolarity,Positive*
%FSLAX46Y46*%
G04 Gerber Fmt 4.6, Leading zero omitted, Abs format (unit mm)*
G04 Created by KiCad (PCBNEW 5.1.6-c6e7f7d~87~ubuntu18.04.1) date 2020-08-07 23:20:09*
%MOMM*%
%LPD*%
G01*
G04 APERTURE LIST*
%ADD10R,1.900000X1.000000*%
%ADD11R,1.900000X1.800000*%
%ADD12R,1.300000X1.650000*%
%ADD13R,1.550000X1.425000*%
%ADD14R,1.380000X0.450000*%
%ADD15R,1.500000X2.000000*%
%ADD16R,3.800000X2.000000*%
%ADD17R,1.300000X1.300000*%
%ADD18R,1.300000X2.000000*%
G04 APERTURE END LIST*
D10*
X129724000Y-80238000D03*
D11*
X129724000Y-82938000D03*
D12*
X129724000Y-78413000D03*
X129724000Y-85163000D03*
D13*
X127149000Y-79300500D03*
X127149000Y-84275500D03*
D14*
X127064000Y-80488000D03*
X127064000Y-81138000D03*
X127064000Y-81788000D03*
X127064000Y-82438000D03*
X127064000Y-83088000D03*
G36*
G01*
X120987500Y-73025000D02*
X120512500Y-73025000D01*
G75*
G02*
X120275000Y-72787500I0J237500D01*
G01*
X120275000Y-72212500D01*
G75*
G02*
X120512500Y-71975000I237500J0D01*
G01*
X120987500Y-71975000D01*
G75*
G02*
X121225000Y-72212500I0J-237500D01*
G01*
X121225000Y-72787500D01*
G75*
G02*
X120987500Y-73025000I-237500J0D01*
G01*
G37*
G36*
G01*
X120987500Y-74775000D02*
X120512500Y-74775000D01*
G75*
G02*
X120275000Y-74537500I0J237500D01*
G01*
X120275000Y-73962500D01*
G75*
G02*
X120512500Y-73725000I237500J0D01*
G01*
X120987500Y-73725000D01*
G75*
G02*
X121225000Y-73962500I0J-237500D01*
G01*
X121225000Y-74537500D01*
G75*
G02*
X120987500Y-74775000I-237500J0D01*
G01*
G37*
G36*
G01*
X126937500Y-73150000D02*
X126462500Y-73150000D01*
G75*
G02*
X126225000Y-72912500I0J237500D01*
G01*
X126225000Y-72337500D01*
G75*
G02*
X126462500Y-72100000I237500J0D01*
G01*
X126937500Y-72100000D01*
G75*
G02*
X127175000Y-72337500I0J-237500D01*
G01*
X127175000Y-72912500D01*
G75*
G02*
X126937500Y-73150000I-237500J0D01*
G01*
G37*
G36*
G01*
X126937500Y-74900000D02*
X126462500Y-74900000D01*
G75*
G02*
X126225000Y-74662500I0J237500D01*
G01*
X126225000Y-74087500D01*
G75*
G02*
X126462500Y-73850000I237500J0D01*
G01*
X126937500Y-73850000D01*
G75*
G02*
X127175000Y-74087500I0J-237500D01*
G01*
X127175000Y-74662500D01*
G75*
G02*
X126937500Y-74900000I-237500J0D01*
G01*
G37*
G36*
G01*
X130700001Y-73150000D02*
X129799999Y-73150000D01*
G75*
G02*
X129550000Y-72900001I0J249999D01*
G01*
X129550000Y-72249999D01*
G75*
G02*
X129799999Y-72000000I249999J0D01*
G01*
X130700001Y-72000000D01*
G75*
G02*
X130950000Y-72249999I0J-249999D01*
G01*
X130950000Y-72900001D01*
G75*
G02*
X130700001Y-73150000I-249999J0D01*
G01*
G37*
G36*
G01*
X130700001Y-75200000D02*
X129799999Y-75200000D01*
G75*
G02*
X129550000Y-74950001I0J249999D01*
G01*
X129550000Y-74299999D01*
G75*
G02*
X129799999Y-74050000I249999J0D01*
G01*
X130700001Y-74050000D01*
G75*
G02*
X130950000Y-74299999I0J-249999D01*
G01*
X130950000Y-74950001D01*
G75*
G02*
X130700001Y-75200000I-249999J0D01*
G01*
G37*
G36*
G01*
X123512500Y-73850000D02*
X123987500Y-73850000D01*
G75*
G02*
X124225000Y-74087500I0J-237500D01*
G01*
X124225000Y-74662500D01*
G75*
G02*
X123987500Y-74900000I-237500J0D01*
G01*
X123512500Y-74900000D01*
G75*
G02*
X123275000Y-74662500I0J237500D01*
G01*
X123275000Y-74087500D01*
G75*
G02*
X123512500Y-73850000I237500J0D01*
G01*
G37*
G36*
G01*
X123512500Y-72100000D02*
X123987500Y-72100000D01*
G75*
G02*
X124225000Y-72337500I0J-237500D01*
G01*
X124225000Y-72912500D01*
G75*
G02*
X123987500Y-73150000I-237500J0D01*
G01*
X123512500Y-73150000D01*
G75*
G02*
X123275000Y-72912500I0J237500D01*
G01*
X123275000Y-72337500D01*
G75*
G02*
X123512500Y-72100000I237500J0D01*
G01*
G37*
G36*
G01*
X120300000Y-84725500D02*
X120300000Y-85200500D01*
G75*
G02*
X120062500Y-85438000I-237500J0D01*
G01*
X119487500Y-85438000D01*
G75*
G02*
X119250000Y-85200500I0J237500D01*
G01*
X119250000Y-84725500D01*
G75*
G02*
X119487500Y-84488000I237500J0D01*
G01*
X120062500Y-84488000D01*
G75*
G02*
X120300000Y-84725500I0J-237500D01*
G01*
G37*
G36*
G01*
X122050000Y-84725500D02*
X122050000Y-85200500D01*
G75*
G02*
X121812500Y-85438000I-237500J0D01*
G01*
X121237500Y-85438000D01*
G75*
G02*
X121000000Y-85200500I0J237500D01*
G01*
X121000000Y-84725500D01*
G75*
G02*
X121237500Y-84488000I237500J0D01*
G01*
X121812500Y-84488000D01*
G75*
G02*
X122050000Y-84725500I0J-237500D01*
G01*
G37*
D15*
X119700000Y-82900000D03*
X124300000Y-82900000D03*
X122000000Y-82900000D03*
D16*
X122000000Y-76600000D03*
D17*
X92950000Y-75650000D03*
D18*
X98450000Y-74500000D03*
D17*
X92950000Y-73350000D03*
X111650000Y-75550000D03*
D18*
X117150000Y-74400000D03*
D17*
X111650000Y-73250000D03*
G36*
G01*
X88125000Y-76637500D02*
X88125000Y-76162500D01*
G75*
G02*
X88362500Y-75925000I237500J0D01*
G01*
X88937500Y-75925000D01*
G75*
G02*
X89175000Y-76162500I0J-237500D01*
G01*
X89175000Y-76637500D01*
G75*
G02*
X88937500Y-76875000I-237500J0D01*
G01*
X88362500Y-76875000D01*
G75*
G02*
X88125000Y-76637500I0J237500D01*
G01*
G37*
G36*
G01*
X86375000Y-76637500D02*
X86375000Y-76162500D01*
G75*
G02*
X86612500Y-75925000I237500J0D01*
G01*
X87187500Y-75925000D01*
G75*
G02*
X87425000Y-76162500I0J-237500D01*
G01*
X87425000Y-76637500D01*
G75*
G02*
X87187500Y-76875000I-237500J0D01*
G01*
X86612500Y-76875000D01*
G75*
G02*
X86375000Y-76637500I0J237500D01*
G01*
G37*
G36*
G01*
X107125000Y-74837500D02*
X107125000Y-74362500D01*
G75*
G02*
X107362500Y-74125000I237500J0D01*
G01*
X107937500Y-74125000D01*
G75*
G02*
X108175000Y-74362500I0J-237500D01*
G01*
X108175000Y-74837500D01*
G75*
G02*
X107937500Y-75075000I-237500J0D01*
G01*
X107362500Y-75075000D01*
G75*
G02*
X107125000Y-74837500I0J237500D01*
G01*
G37*
G36*
G01*
X105375000Y-74837500D02*
X105375000Y-74362500D01*
G75*
G02*
X105612500Y-74125000I237500J0D01*
G01*
X106187500Y-74125000D01*
G75*
G02*
X106425000Y-74362500I0J-237500D01*
G01*
X106425000Y-74837500D01*
G75*
G02*
X106187500Y-75075000I-237500J0D01*
G01*
X105612500Y-75075000D01*
G75*
G02*
X105375000Y-74837500I0J237500D01*
G01*
G37*
G36*
G01*
X88125000Y-75037500D02*
X88125000Y-74562500D01*
G75*
G02*
X88362500Y-74325000I237500J0D01*
G01*
X88937500Y-74325000D01*
G75*
G02*
X89175000Y-74562500I0J-237500D01*
G01*
X89175000Y-75037500D01*
G75*
G02*
X88937500Y-75275000I-237500J0D01*
G01*
X88362500Y-75275000D01*
G75*
G02*
X88125000Y-75037500I0J237500D01*
G01*
G37*
G36*
G01*
X86375000Y-75037500D02*
X86375000Y-74562500D01*
G75*
G02*
X86612500Y-74325000I237500J0D01*
G01*
X87187500Y-74325000D01*
G75*
G02*
X87425000Y-74562500I0J-237500D01*
G01*
X87425000Y-75037500D01*
G75*
G02*
X87187500Y-75275000I-237500J0D01*
G01*
X86612500Y-75275000D01*
G75*
G02*
X86375000Y-75037500I0J237500D01*
G01*
G37*
G36*
G01*
X107125000Y-76437500D02*
X107125000Y-75962500D01*
G75*
G02*
X107362500Y-75725000I237500J0D01*
G01*
X107937500Y-75725000D01*
G75*
G02*
X108175000Y-75962500I0J-237500D01*
G01*
X108175000Y-76437500D01*
G75*
G02*
X107937500Y-76675000I-237500J0D01*
G01*
X107362500Y-76675000D01*
G75*
G02*
X107125000Y-76437500I0J237500D01*
G01*
G37*
G36*
G01*
X105375000Y-76437500D02*
X105375000Y-75962500D01*
G75*
G02*
X105612500Y-75725000I237500J0D01*
G01*
X106187500Y-75725000D01*
G75*
G02*
X106425000Y-75962500I0J-237500D01*
G01*
X106425000Y-76437500D01*
G75*
G02*
X106187500Y-76675000I-237500J0D01*
G01*
X105612500Y-76675000D01*
G75*
G02*
X105375000Y-76437500I0J237500D01*
G01*
G37*
G36*
G01*
X82725000Y-75037500D02*
X82725000Y-74562500D01*
G75*
G02*
X82962500Y-74325000I237500J0D01*
G01*
X83537500Y-74325000D01*
G75*
G02*
X83775000Y-74562500I0J-237500D01*
G01*
X83775000Y-75037500D01*
G75*
G02*
X83537500Y-75275000I-237500J0D01*
G01*
X82962500Y-75275000D01*
G75*
G02*
X82725000Y-75037500I0J237500D01*
G01*
G37*
G36*
G01*
X80975000Y-75037500D02*
X80975000Y-74562500D01*
G75*
G02*
X81212500Y-74325000I237500J0D01*
G01*
X81787500Y-74325000D01*
G75*
G02*
X82025000Y-74562500I0J-237500D01*
G01*
X82025000Y-75037500D01*
G75*
G02*
X81787500Y-75275000I-237500J0D01*
G01*
X81212500Y-75275000D01*
G75*
G02*
X80975000Y-75037500I0J237500D01*
G01*
G37*
G36*
G01*
X101550000Y-74987500D02*
X101550000Y-74512500D01*
G75*
G02*
X101787500Y-74275000I237500J0D01*
G01*
X102362500Y-74275000D01*
G75*
G02*
X102600000Y-74512500I0J-237500D01*
G01*
X102600000Y-74987500D01*
G75*
G02*
X102362500Y-75225000I-237500J0D01*
G01*
X101787500Y-75225000D01*
G75*
G02*
X101550000Y-74987500I0J237500D01*
G01*
G37*
G36*
G01*
X99800000Y-74987500D02*
X99800000Y-74512500D01*
G75*
G02*
X100037500Y-74275000I237500J0D01*
G01*
X100612500Y-74275000D01*
G75*
G02*
X100850000Y-74512500I0J-237500D01*
G01*
X100850000Y-74987500D01*
G75*
G02*
X100612500Y-75225000I-237500J0D01*
G01*
X100037500Y-75225000D01*
G75*
G02*
X99800000Y-74987500I0J237500D01*
G01*
G37*
G36*
G01*
X82725000Y-76637500D02*
X82725000Y-76162500D01*
G75*
G02*
X82962500Y-75925000I237500J0D01*
G01*
X83537500Y-75925000D01*
G75*
G02*
X83775000Y-76162500I0J-237500D01*
G01*
X83775000Y-76637500D01*
G75*
G02*
X83537500Y-76875000I-237500J0D01*
G01*
X82962500Y-76875000D01*
G75*
G02*
X82725000Y-76637500I0J237500D01*
G01*
G37*
G36*
G01*
X80975000Y-76637500D02*
X80975000Y-76162500D01*
G75*
G02*
X81212500Y-75925000I237500J0D01*
G01*
X81787500Y-75925000D01*
G75*
G02*
X82025000Y-76162500I0J-237500D01*
G01*
X82025000Y-76637500D01*
G75*
G02*
X81787500Y-76875000I-237500J0D01*
G01*
X81212500Y-76875000D01*
G75*
G02*
X80975000Y-76637500I0J237500D01*
G01*
G37*
G36*
G01*
X101525000Y-76487500D02*
X101525000Y-76012500D01*
G75*
G02*
X101762500Y-75775000I237500J0D01*
G01*
X102337500Y-75775000D01*
G75*
G02*
X102575000Y-76012500I0J-237500D01*
G01*
X102575000Y-76487500D01*
G75*
G02*
X102337500Y-76725000I-237500J0D01*
G01*
X101762500Y-76725000D01*
G75*
G02*
X101525000Y-76487500I0J237500D01*
G01*
G37*
G36*
G01*
X99775000Y-76487500D02*
X99775000Y-76012500D01*
G75*
G02*
X100012500Y-75775000I237500J0D01*
G01*
X100587500Y-75775000D01*
G75*
G02*
X100825000Y-76012500I0J-237500D01*
G01*
X100825000Y-76487500D01*
G75*
G02*
X100587500Y-76725000I-237500J0D01*
G01*
X100012500Y-76725000D01*
G75*
G02*
X99775000Y-76487500I0J237500D01*
G01*
G37*
M02*
