G04 #@! TF.GenerationSoftware,KiCad,Pcbnew,5.1.6-c6e7f7d~87~ubuntu18.04.1*
G04 #@! TF.CreationDate,2020-08-07T23:20:09-04:00*
G04 #@! TF.ProjectId,led_tester,6c65645f-7465-4737-9465-722e6b696361,rev?*
G04 #@! TF.SameCoordinates,Original*
G04 #@! TF.FileFunction,Soldermask,Top*
G04 #@! TF.FilePolarity,Negative*
%FSLAX46Y46*%
G04 Gerber Fmt 4.6, Leading zero omitted, Abs format (unit mm)*
G04 Created by KiCad (PCBNEW 5.1.6-c6e7f7d~87~ubuntu18.04.1) date 2020-08-07 23:20:09*
%MOMM*%
%LPD*%
G01*
G04 APERTURE LIST*
%ADD10C,0.100000*%
G04 APERTURE END LIST*
D10*
G36*
X130425000Y-86039000D02*
G01*
X129023000Y-86039000D01*
X129023000Y-84287000D01*
X130425000Y-84287000D01*
X130425000Y-86039000D01*
G37*
G36*
X121939499Y-84441445D02*
G01*
X121976995Y-84452820D01*
X122011554Y-84471292D01*
X122041847Y-84496153D01*
X122066708Y-84526446D01*
X122085180Y-84561005D01*
X122096555Y-84598501D01*
X122101000Y-84643638D01*
X122101000Y-85282362D01*
X122096555Y-85327499D01*
X122085180Y-85364995D01*
X122066708Y-85399554D01*
X122041847Y-85429847D01*
X122011554Y-85454708D01*
X121976995Y-85473180D01*
X121939499Y-85484555D01*
X121894362Y-85489000D01*
X121155638Y-85489000D01*
X121110501Y-85484555D01*
X121073005Y-85473180D01*
X121038446Y-85454708D01*
X121008153Y-85429847D01*
X120983292Y-85399554D01*
X120964820Y-85364995D01*
X120953445Y-85327499D01*
X120949000Y-85282362D01*
X120949000Y-84643638D01*
X120953445Y-84598501D01*
X120964820Y-84561005D01*
X120983292Y-84526446D01*
X121008153Y-84496153D01*
X121038446Y-84471292D01*
X121073005Y-84452820D01*
X121110501Y-84441445D01*
X121155638Y-84437000D01*
X121894362Y-84437000D01*
X121939499Y-84441445D01*
G37*
G36*
X120189499Y-84441445D02*
G01*
X120226995Y-84452820D01*
X120261554Y-84471292D01*
X120291847Y-84496153D01*
X120316708Y-84526446D01*
X120335180Y-84561005D01*
X120346555Y-84598501D01*
X120351000Y-84643638D01*
X120351000Y-85282362D01*
X120346555Y-85327499D01*
X120335180Y-85364995D01*
X120316708Y-85399554D01*
X120291847Y-85429847D01*
X120261554Y-85454708D01*
X120226995Y-85473180D01*
X120189499Y-85484555D01*
X120144362Y-85489000D01*
X119405638Y-85489000D01*
X119360501Y-85484555D01*
X119323005Y-85473180D01*
X119288446Y-85454708D01*
X119258153Y-85429847D01*
X119233292Y-85399554D01*
X119214820Y-85364995D01*
X119203445Y-85327499D01*
X119199000Y-85282362D01*
X119199000Y-84643638D01*
X119203445Y-84598501D01*
X119214820Y-84561005D01*
X119233292Y-84526446D01*
X119258153Y-84496153D01*
X119288446Y-84471292D01*
X119323005Y-84452820D01*
X119360501Y-84441445D01*
X119405638Y-84437000D01*
X120144362Y-84437000D01*
X120189499Y-84441445D01*
G37*
G36*
X127975000Y-80064000D02*
G01*
X127929999Y-80064000D01*
X127905613Y-80066402D01*
X127882164Y-80073515D01*
X127860553Y-80085066D01*
X127841611Y-80100611D01*
X127826066Y-80119553D01*
X127814515Y-80141164D01*
X127807402Y-80164613D01*
X127805000Y-80188999D01*
X127805000Y-83387001D01*
X127807402Y-83411387D01*
X127814515Y-83434836D01*
X127826066Y-83456447D01*
X127841611Y-83475389D01*
X127860553Y-83490934D01*
X127882164Y-83502485D01*
X127905613Y-83509598D01*
X127929999Y-83512000D01*
X127975000Y-83512000D01*
X127975000Y-85039000D01*
X126323000Y-85039000D01*
X126323000Y-78537000D01*
X127975000Y-78537000D01*
X127975000Y-80064000D01*
G37*
G36*
X120501000Y-83951000D02*
G01*
X118899000Y-83951000D01*
X118899000Y-81849000D01*
X120501000Y-81849000D01*
X120501000Y-83951000D01*
G37*
G36*
X122801000Y-83951000D02*
G01*
X121199000Y-83951000D01*
X121199000Y-81849000D01*
X122801000Y-81849000D01*
X122801000Y-83951000D01*
G37*
G36*
X125101000Y-83951000D02*
G01*
X123499000Y-83951000D01*
X123499000Y-81849000D01*
X125101000Y-81849000D01*
X125101000Y-83951000D01*
G37*
G36*
X130725000Y-83889000D02*
G01*
X128723000Y-83889000D01*
X128723000Y-81987000D01*
X130725000Y-81987000D01*
X130725000Y-83889000D01*
G37*
G36*
X98401000Y-82441000D02*
G01*
X96599000Y-82441000D01*
X96599000Y-80639000D01*
X98401000Y-80639000D01*
X98401000Y-82441000D01*
G37*
G36*
X102101000Y-82441000D02*
G01*
X100299000Y-82441000D01*
X100299000Y-80639000D01*
X102101000Y-80639000D01*
X102101000Y-82441000D01*
G37*
G36*
X105851000Y-82441000D02*
G01*
X104049000Y-82441000D01*
X104049000Y-80639000D01*
X105851000Y-80639000D01*
X105851000Y-82441000D01*
G37*
G36*
X109601000Y-82441000D02*
G01*
X107799000Y-82441000D01*
X107799000Y-80639000D01*
X109601000Y-80639000D01*
X109601000Y-82441000D01*
G37*
G36*
X87151000Y-82401000D02*
G01*
X85349000Y-82401000D01*
X85349000Y-80599000D01*
X87151000Y-80599000D01*
X87151000Y-82401000D01*
G37*
G36*
X83401000Y-82401000D02*
G01*
X81599000Y-82401000D01*
X81599000Y-80599000D01*
X83401000Y-80599000D01*
X83401000Y-82401000D01*
G37*
G36*
X113351000Y-82401000D02*
G01*
X111549000Y-82401000D01*
X111549000Y-80599000D01*
X113351000Y-80599000D01*
X113351000Y-82401000D01*
G37*
G36*
X90901000Y-82401000D02*
G01*
X89099000Y-82401000D01*
X89099000Y-80599000D01*
X90901000Y-80599000D01*
X90901000Y-82401000D01*
G37*
G36*
X117101000Y-82401000D02*
G01*
X115299000Y-82401000D01*
X115299000Y-80599000D01*
X117101000Y-80599000D01*
X117101000Y-82401000D01*
G37*
G36*
X94651000Y-82401000D02*
G01*
X92849000Y-82401000D01*
X92849000Y-80599000D01*
X94651000Y-80599000D01*
X94651000Y-82401000D01*
G37*
G36*
X130725000Y-80789000D02*
G01*
X128723000Y-80789000D01*
X128723000Y-79687000D01*
X130725000Y-79687000D01*
X130725000Y-80789000D01*
G37*
G36*
X105063512Y-78103927D02*
G01*
X105212812Y-78133624D01*
X105376784Y-78201544D01*
X105524354Y-78300147D01*
X105649853Y-78425646D01*
X105748456Y-78573216D01*
X105816376Y-78737188D01*
X105851000Y-78911259D01*
X105851000Y-79088741D01*
X105816376Y-79262812D01*
X105748456Y-79426784D01*
X105649853Y-79574354D01*
X105524354Y-79699853D01*
X105376784Y-79798456D01*
X105212812Y-79866376D01*
X105063512Y-79896073D01*
X105038742Y-79901000D01*
X104861258Y-79901000D01*
X104836488Y-79896073D01*
X104687188Y-79866376D01*
X104523216Y-79798456D01*
X104375646Y-79699853D01*
X104250147Y-79574354D01*
X104151544Y-79426784D01*
X104083624Y-79262812D01*
X104049000Y-79088741D01*
X104049000Y-78911259D01*
X104083624Y-78737188D01*
X104151544Y-78573216D01*
X104250147Y-78425646D01*
X104375646Y-78300147D01*
X104523216Y-78201544D01*
X104687188Y-78133624D01*
X104836488Y-78103927D01*
X104861258Y-78099000D01*
X105038742Y-78099000D01*
X105063512Y-78103927D01*
G37*
G36*
X108813512Y-78103927D02*
G01*
X108962812Y-78133624D01*
X109126784Y-78201544D01*
X109274354Y-78300147D01*
X109399853Y-78425646D01*
X109498456Y-78573216D01*
X109566376Y-78737188D01*
X109601000Y-78911259D01*
X109601000Y-79088741D01*
X109566376Y-79262812D01*
X109498456Y-79426784D01*
X109399853Y-79574354D01*
X109274354Y-79699853D01*
X109126784Y-79798456D01*
X108962812Y-79866376D01*
X108813512Y-79896073D01*
X108788742Y-79901000D01*
X108611258Y-79901000D01*
X108586488Y-79896073D01*
X108437188Y-79866376D01*
X108273216Y-79798456D01*
X108125646Y-79699853D01*
X108000147Y-79574354D01*
X107901544Y-79426784D01*
X107833624Y-79262812D01*
X107799000Y-79088741D01*
X107799000Y-78911259D01*
X107833624Y-78737188D01*
X107901544Y-78573216D01*
X108000147Y-78425646D01*
X108125646Y-78300147D01*
X108273216Y-78201544D01*
X108437188Y-78133624D01*
X108586488Y-78103927D01*
X108611258Y-78099000D01*
X108788742Y-78099000D01*
X108813512Y-78103927D01*
G37*
G36*
X101313512Y-78103927D02*
G01*
X101462812Y-78133624D01*
X101626784Y-78201544D01*
X101774354Y-78300147D01*
X101899853Y-78425646D01*
X101998456Y-78573216D01*
X102066376Y-78737188D01*
X102101000Y-78911259D01*
X102101000Y-79088741D01*
X102066376Y-79262812D01*
X101998456Y-79426784D01*
X101899853Y-79574354D01*
X101774354Y-79699853D01*
X101626784Y-79798456D01*
X101462812Y-79866376D01*
X101313512Y-79896073D01*
X101288742Y-79901000D01*
X101111258Y-79901000D01*
X101086488Y-79896073D01*
X100937188Y-79866376D01*
X100773216Y-79798456D01*
X100625646Y-79699853D01*
X100500147Y-79574354D01*
X100401544Y-79426784D01*
X100333624Y-79262812D01*
X100299000Y-79088741D01*
X100299000Y-78911259D01*
X100333624Y-78737188D01*
X100401544Y-78573216D01*
X100500147Y-78425646D01*
X100625646Y-78300147D01*
X100773216Y-78201544D01*
X100937188Y-78133624D01*
X101086488Y-78103927D01*
X101111258Y-78099000D01*
X101288742Y-78099000D01*
X101313512Y-78103927D01*
G37*
G36*
X97613512Y-78103927D02*
G01*
X97762812Y-78133624D01*
X97926784Y-78201544D01*
X98074354Y-78300147D01*
X98199853Y-78425646D01*
X98298456Y-78573216D01*
X98366376Y-78737188D01*
X98401000Y-78911259D01*
X98401000Y-79088741D01*
X98366376Y-79262812D01*
X98298456Y-79426784D01*
X98199853Y-79574354D01*
X98074354Y-79699853D01*
X97926784Y-79798456D01*
X97762812Y-79866376D01*
X97613512Y-79896073D01*
X97588742Y-79901000D01*
X97411258Y-79901000D01*
X97386488Y-79896073D01*
X97237188Y-79866376D01*
X97073216Y-79798456D01*
X96925646Y-79699853D01*
X96800147Y-79574354D01*
X96701544Y-79426784D01*
X96633624Y-79262812D01*
X96599000Y-79088741D01*
X96599000Y-78911259D01*
X96633624Y-78737188D01*
X96701544Y-78573216D01*
X96800147Y-78425646D01*
X96925646Y-78300147D01*
X97073216Y-78201544D01*
X97237188Y-78133624D01*
X97386488Y-78103927D01*
X97411258Y-78099000D01*
X97588742Y-78099000D01*
X97613512Y-78103927D01*
G37*
G36*
X90113512Y-78063927D02*
G01*
X90262812Y-78093624D01*
X90426784Y-78161544D01*
X90574354Y-78260147D01*
X90699853Y-78385646D01*
X90798456Y-78533216D01*
X90866376Y-78697188D01*
X90901000Y-78871259D01*
X90901000Y-79048741D01*
X90866376Y-79222812D01*
X90798456Y-79386784D01*
X90699853Y-79534354D01*
X90574354Y-79659853D01*
X90426784Y-79758456D01*
X90262812Y-79826376D01*
X90113512Y-79856073D01*
X90088742Y-79861000D01*
X89911258Y-79861000D01*
X89886488Y-79856073D01*
X89737188Y-79826376D01*
X89573216Y-79758456D01*
X89425646Y-79659853D01*
X89300147Y-79534354D01*
X89201544Y-79386784D01*
X89133624Y-79222812D01*
X89099000Y-79048741D01*
X89099000Y-78871259D01*
X89133624Y-78697188D01*
X89201544Y-78533216D01*
X89300147Y-78385646D01*
X89425646Y-78260147D01*
X89573216Y-78161544D01*
X89737188Y-78093624D01*
X89886488Y-78063927D01*
X89911258Y-78059000D01*
X90088742Y-78059000D01*
X90113512Y-78063927D01*
G37*
G36*
X116313512Y-78063927D02*
G01*
X116462812Y-78093624D01*
X116626784Y-78161544D01*
X116774354Y-78260147D01*
X116899853Y-78385646D01*
X116998456Y-78533216D01*
X117066376Y-78697188D01*
X117101000Y-78871259D01*
X117101000Y-79048741D01*
X117066376Y-79222812D01*
X116998456Y-79386784D01*
X116899853Y-79534354D01*
X116774354Y-79659853D01*
X116626784Y-79758456D01*
X116462812Y-79826376D01*
X116313512Y-79856073D01*
X116288742Y-79861000D01*
X116111258Y-79861000D01*
X116086488Y-79856073D01*
X115937188Y-79826376D01*
X115773216Y-79758456D01*
X115625646Y-79659853D01*
X115500147Y-79534354D01*
X115401544Y-79386784D01*
X115333624Y-79222812D01*
X115299000Y-79048741D01*
X115299000Y-78871259D01*
X115333624Y-78697188D01*
X115401544Y-78533216D01*
X115500147Y-78385646D01*
X115625646Y-78260147D01*
X115773216Y-78161544D01*
X115937188Y-78093624D01*
X116086488Y-78063927D01*
X116111258Y-78059000D01*
X116288742Y-78059000D01*
X116313512Y-78063927D01*
G37*
G36*
X112563512Y-78063927D02*
G01*
X112712812Y-78093624D01*
X112876784Y-78161544D01*
X113024354Y-78260147D01*
X113149853Y-78385646D01*
X113248456Y-78533216D01*
X113316376Y-78697188D01*
X113351000Y-78871259D01*
X113351000Y-79048741D01*
X113316376Y-79222812D01*
X113248456Y-79386784D01*
X113149853Y-79534354D01*
X113024354Y-79659853D01*
X112876784Y-79758456D01*
X112712812Y-79826376D01*
X112563512Y-79856073D01*
X112538742Y-79861000D01*
X112361258Y-79861000D01*
X112336488Y-79856073D01*
X112187188Y-79826376D01*
X112023216Y-79758456D01*
X111875646Y-79659853D01*
X111750147Y-79534354D01*
X111651544Y-79386784D01*
X111583624Y-79222812D01*
X111549000Y-79048741D01*
X111549000Y-78871259D01*
X111583624Y-78697188D01*
X111651544Y-78533216D01*
X111750147Y-78385646D01*
X111875646Y-78260147D01*
X112023216Y-78161544D01*
X112187188Y-78093624D01*
X112336488Y-78063927D01*
X112361258Y-78059000D01*
X112538742Y-78059000D01*
X112563512Y-78063927D01*
G37*
G36*
X93863512Y-78063927D02*
G01*
X94012812Y-78093624D01*
X94176784Y-78161544D01*
X94324354Y-78260147D01*
X94449853Y-78385646D01*
X94548456Y-78533216D01*
X94616376Y-78697188D01*
X94651000Y-78871259D01*
X94651000Y-79048741D01*
X94616376Y-79222812D01*
X94548456Y-79386784D01*
X94449853Y-79534354D01*
X94324354Y-79659853D01*
X94176784Y-79758456D01*
X94012812Y-79826376D01*
X93863512Y-79856073D01*
X93838742Y-79861000D01*
X93661258Y-79861000D01*
X93636488Y-79856073D01*
X93487188Y-79826376D01*
X93323216Y-79758456D01*
X93175646Y-79659853D01*
X93050147Y-79534354D01*
X92951544Y-79386784D01*
X92883624Y-79222812D01*
X92849000Y-79048741D01*
X92849000Y-78871259D01*
X92883624Y-78697188D01*
X92951544Y-78533216D01*
X93050147Y-78385646D01*
X93175646Y-78260147D01*
X93323216Y-78161544D01*
X93487188Y-78093624D01*
X93636488Y-78063927D01*
X93661258Y-78059000D01*
X93838742Y-78059000D01*
X93863512Y-78063927D01*
G37*
G36*
X86363512Y-78063927D02*
G01*
X86512812Y-78093624D01*
X86676784Y-78161544D01*
X86824354Y-78260147D01*
X86949853Y-78385646D01*
X87048456Y-78533216D01*
X87116376Y-78697188D01*
X87151000Y-78871259D01*
X87151000Y-79048741D01*
X87116376Y-79222812D01*
X87048456Y-79386784D01*
X86949853Y-79534354D01*
X86824354Y-79659853D01*
X86676784Y-79758456D01*
X86512812Y-79826376D01*
X86363512Y-79856073D01*
X86338742Y-79861000D01*
X86161258Y-79861000D01*
X86136488Y-79856073D01*
X85987188Y-79826376D01*
X85823216Y-79758456D01*
X85675646Y-79659853D01*
X85550147Y-79534354D01*
X85451544Y-79386784D01*
X85383624Y-79222812D01*
X85349000Y-79048741D01*
X85349000Y-78871259D01*
X85383624Y-78697188D01*
X85451544Y-78533216D01*
X85550147Y-78385646D01*
X85675646Y-78260147D01*
X85823216Y-78161544D01*
X85987188Y-78093624D01*
X86136488Y-78063927D01*
X86161258Y-78059000D01*
X86338742Y-78059000D01*
X86363512Y-78063927D01*
G37*
G36*
X82613512Y-78063927D02*
G01*
X82762812Y-78093624D01*
X82926784Y-78161544D01*
X83074354Y-78260147D01*
X83199853Y-78385646D01*
X83298456Y-78533216D01*
X83366376Y-78697188D01*
X83401000Y-78871259D01*
X83401000Y-79048741D01*
X83366376Y-79222812D01*
X83298456Y-79386784D01*
X83199853Y-79534354D01*
X83074354Y-79659853D01*
X82926784Y-79758456D01*
X82762812Y-79826376D01*
X82613512Y-79856073D01*
X82588742Y-79861000D01*
X82411258Y-79861000D01*
X82386488Y-79856073D01*
X82237188Y-79826376D01*
X82073216Y-79758456D01*
X81925646Y-79659853D01*
X81800147Y-79534354D01*
X81701544Y-79386784D01*
X81633624Y-79222812D01*
X81599000Y-79048741D01*
X81599000Y-78871259D01*
X81633624Y-78697188D01*
X81701544Y-78533216D01*
X81800147Y-78385646D01*
X81925646Y-78260147D01*
X82073216Y-78161544D01*
X82237188Y-78093624D01*
X82386488Y-78063927D01*
X82411258Y-78059000D01*
X82588742Y-78059000D01*
X82613512Y-78063927D01*
G37*
G36*
X130425000Y-79289000D02*
G01*
X129023000Y-79289000D01*
X129023000Y-77537000D01*
X130425000Y-77537000D01*
X130425000Y-79289000D01*
G37*
G36*
X123951000Y-77651000D02*
G01*
X120049000Y-77651000D01*
X120049000Y-75549000D01*
X123951000Y-75549000D01*
X123951000Y-77651000D01*
G37*
G36*
X83664499Y-75878445D02*
G01*
X83701995Y-75889820D01*
X83736554Y-75908292D01*
X83766847Y-75933153D01*
X83791708Y-75963446D01*
X83810180Y-75998005D01*
X83821555Y-76035501D01*
X83826000Y-76080638D01*
X83826000Y-76719362D01*
X83821555Y-76764499D01*
X83810180Y-76801995D01*
X83791708Y-76836554D01*
X83766847Y-76866847D01*
X83736554Y-76891708D01*
X83701995Y-76910180D01*
X83664499Y-76921555D01*
X83619362Y-76926000D01*
X82880638Y-76926000D01*
X82835501Y-76921555D01*
X82798005Y-76910180D01*
X82763446Y-76891708D01*
X82733153Y-76866847D01*
X82708292Y-76836554D01*
X82689820Y-76801995D01*
X82678445Y-76764499D01*
X82674000Y-76719362D01*
X82674000Y-76080638D01*
X82678445Y-76035501D01*
X82689820Y-75998005D01*
X82708292Y-75963446D01*
X82733153Y-75933153D01*
X82763446Y-75908292D01*
X82798005Y-75889820D01*
X82835501Y-75878445D01*
X82880638Y-75874000D01*
X83619362Y-75874000D01*
X83664499Y-75878445D01*
G37*
G36*
X87314499Y-75878445D02*
G01*
X87351995Y-75889820D01*
X87386554Y-75908292D01*
X87416847Y-75933153D01*
X87441708Y-75963446D01*
X87460180Y-75998005D01*
X87471555Y-76035501D01*
X87476000Y-76080638D01*
X87476000Y-76719362D01*
X87471555Y-76764499D01*
X87460180Y-76801995D01*
X87441708Y-76836554D01*
X87416847Y-76866847D01*
X87386554Y-76891708D01*
X87351995Y-76910180D01*
X87314499Y-76921555D01*
X87269362Y-76926000D01*
X86530638Y-76926000D01*
X86485501Y-76921555D01*
X86448005Y-76910180D01*
X86413446Y-76891708D01*
X86383153Y-76866847D01*
X86358292Y-76836554D01*
X86339820Y-76801995D01*
X86328445Y-76764499D01*
X86324000Y-76719362D01*
X86324000Y-76080638D01*
X86328445Y-76035501D01*
X86339820Y-75998005D01*
X86358292Y-75963446D01*
X86383153Y-75933153D01*
X86413446Y-75908292D01*
X86448005Y-75889820D01*
X86485501Y-75878445D01*
X86530638Y-75874000D01*
X87269362Y-75874000D01*
X87314499Y-75878445D01*
G37*
G36*
X89064499Y-75878445D02*
G01*
X89101995Y-75889820D01*
X89136554Y-75908292D01*
X89166847Y-75933153D01*
X89191708Y-75963446D01*
X89210180Y-75998005D01*
X89221555Y-76035501D01*
X89226000Y-76080638D01*
X89226000Y-76719362D01*
X89221555Y-76764499D01*
X89210180Y-76801995D01*
X89191708Y-76836554D01*
X89166847Y-76866847D01*
X89136554Y-76891708D01*
X89101995Y-76910180D01*
X89064499Y-76921555D01*
X89019362Y-76926000D01*
X88280638Y-76926000D01*
X88235501Y-76921555D01*
X88198005Y-76910180D01*
X88163446Y-76891708D01*
X88133153Y-76866847D01*
X88108292Y-76836554D01*
X88089820Y-76801995D01*
X88078445Y-76764499D01*
X88074000Y-76719362D01*
X88074000Y-76080638D01*
X88078445Y-76035501D01*
X88089820Y-75998005D01*
X88108292Y-75963446D01*
X88133153Y-75933153D01*
X88163446Y-75908292D01*
X88198005Y-75889820D01*
X88235501Y-75878445D01*
X88280638Y-75874000D01*
X89019362Y-75874000D01*
X89064499Y-75878445D01*
G37*
G36*
X81914499Y-75878445D02*
G01*
X81951995Y-75889820D01*
X81986554Y-75908292D01*
X82016847Y-75933153D01*
X82041708Y-75963446D01*
X82060180Y-75998005D01*
X82071555Y-76035501D01*
X82076000Y-76080638D01*
X82076000Y-76719362D01*
X82071555Y-76764499D01*
X82060180Y-76801995D01*
X82041708Y-76836554D01*
X82016847Y-76866847D01*
X81986554Y-76891708D01*
X81951995Y-76910180D01*
X81914499Y-76921555D01*
X81869362Y-76926000D01*
X81130638Y-76926000D01*
X81085501Y-76921555D01*
X81048005Y-76910180D01*
X81013446Y-76891708D01*
X80983153Y-76866847D01*
X80958292Y-76836554D01*
X80939820Y-76801995D01*
X80928445Y-76764499D01*
X80924000Y-76719362D01*
X80924000Y-76080638D01*
X80928445Y-76035501D01*
X80939820Y-75998005D01*
X80958292Y-75963446D01*
X80983153Y-75933153D01*
X81013446Y-75908292D01*
X81048005Y-75889820D01*
X81085501Y-75878445D01*
X81130638Y-75874000D01*
X81869362Y-75874000D01*
X81914499Y-75878445D01*
G37*
G36*
X102464499Y-75728445D02*
G01*
X102501995Y-75739820D01*
X102536554Y-75758292D01*
X102566847Y-75783153D01*
X102591708Y-75813446D01*
X102610180Y-75848005D01*
X102621555Y-75885501D01*
X102626000Y-75930638D01*
X102626000Y-76569362D01*
X102621555Y-76614499D01*
X102610180Y-76651995D01*
X102591708Y-76686554D01*
X102566847Y-76716847D01*
X102536554Y-76741708D01*
X102501995Y-76760180D01*
X102464499Y-76771555D01*
X102419362Y-76776000D01*
X101680638Y-76776000D01*
X101635501Y-76771555D01*
X101598005Y-76760180D01*
X101563446Y-76741708D01*
X101533153Y-76716847D01*
X101508292Y-76686554D01*
X101489820Y-76651995D01*
X101478445Y-76614499D01*
X101474000Y-76569362D01*
X101474000Y-75930638D01*
X101478445Y-75885501D01*
X101489820Y-75848005D01*
X101508292Y-75813446D01*
X101533153Y-75783153D01*
X101563446Y-75758292D01*
X101598005Y-75739820D01*
X101635501Y-75728445D01*
X101680638Y-75724000D01*
X102419362Y-75724000D01*
X102464499Y-75728445D01*
G37*
G36*
X100714499Y-75728445D02*
G01*
X100751995Y-75739820D01*
X100786554Y-75758292D01*
X100816847Y-75783153D01*
X100841708Y-75813446D01*
X100860180Y-75848005D01*
X100871555Y-75885501D01*
X100876000Y-75930638D01*
X100876000Y-76569362D01*
X100871555Y-76614499D01*
X100860180Y-76651995D01*
X100841708Y-76686554D01*
X100816847Y-76716847D01*
X100786554Y-76741708D01*
X100751995Y-76760180D01*
X100714499Y-76771555D01*
X100669362Y-76776000D01*
X99930638Y-76776000D01*
X99885501Y-76771555D01*
X99848005Y-76760180D01*
X99813446Y-76741708D01*
X99783153Y-76716847D01*
X99758292Y-76686554D01*
X99739820Y-76651995D01*
X99728445Y-76614499D01*
X99724000Y-76569362D01*
X99724000Y-75930638D01*
X99728445Y-75885501D01*
X99739820Y-75848005D01*
X99758292Y-75813446D01*
X99783153Y-75783153D01*
X99813446Y-75758292D01*
X99848005Y-75739820D01*
X99885501Y-75728445D01*
X99930638Y-75724000D01*
X100669362Y-75724000D01*
X100714499Y-75728445D01*
G37*
G36*
X108064499Y-75678445D02*
G01*
X108101995Y-75689820D01*
X108136554Y-75708292D01*
X108166847Y-75733153D01*
X108191708Y-75763446D01*
X108210180Y-75798005D01*
X108221555Y-75835501D01*
X108226000Y-75880638D01*
X108226000Y-76519362D01*
X108221555Y-76564499D01*
X108210180Y-76601995D01*
X108191708Y-76636554D01*
X108166847Y-76666847D01*
X108136554Y-76691708D01*
X108101995Y-76710180D01*
X108064499Y-76721555D01*
X108019362Y-76726000D01*
X107280638Y-76726000D01*
X107235501Y-76721555D01*
X107198005Y-76710180D01*
X107163446Y-76691708D01*
X107133153Y-76666847D01*
X107108292Y-76636554D01*
X107089820Y-76601995D01*
X107078445Y-76564499D01*
X107074000Y-76519362D01*
X107074000Y-75880638D01*
X107078445Y-75835501D01*
X107089820Y-75798005D01*
X107108292Y-75763446D01*
X107133153Y-75733153D01*
X107163446Y-75708292D01*
X107198005Y-75689820D01*
X107235501Y-75678445D01*
X107280638Y-75674000D01*
X108019362Y-75674000D01*
X108064499Y-75678445D01*
G37*
G36*
X106314499Y-75678445D02*
G01*
X106351995Y-75689820D01*
X106386554Y-75708292D01*
X106416847Y-75733153D01*
X106441708Y-75763446D01*
X106460180Y-75798005D01*
X106471555Y-75835501D01*
X106476000Y-75880638D01*
X106476000Y-76519362D01*
X106471555Y-76564499D01*
X106460180Y-76601995D01*
X106441708Y-76636554D01*
X106416847Y-76666847D01*
X106386554Y-76691708D01*
X106351995Y-76710180D01*
X106314499Y-76721555D01*
X106269362Y-76726000D01*
X105530638Y-76726000D01*
X105485501Y-76721555D01*
X105448005Y-76710180D01*
X105413446Y-76691708D01*
X105383153Y-76666847D01*
X105358292Y-76636554D01*
X105339820Y-76601995D01*
X105328445Y-76564499D01*
X105324000Y-76519362D01*
X105324000Y-75880638D01*
X105328445Y-75835501D01*
X105339820Y-75798005D01*
X105358292Y-75763446D01*
X105383153Y-75733153D01*
X105413446Y-75708292D01*
X105448005Y-75689820D01*
X105485501Y-75678445D01*
X105530638Y-75674000D01*
X106269362Y-75674000D01*
X106314499Y-75678445D01*
G37*
G36*
X93651000Y-76351000D02*
G01*
X92249000Y-76351000D01*
X92249000Y-74949000D01*
X93651000Y-74949000D01*
X93651000Y-76351000D01*
G37*
G36*
X112351000Y-76251000D02*
G01*
X110949000Y-76251000D01*
X110949000Y-74849000D01*
X112351000Y-74849000D01*
X112351000Y-76251000D01*
G37*
G36*
X99151000Y-75551000D02*
G01*
X97749000Y-75551000D01*
X97749000Y-73449000D01*
X99151000Y-73449000D01*
X99151000Y-75551000D01*
G37*
G36*
X117851000Y-75451000D02*
G01*
X116449000Y-75451000D01*
X116449000Y-73349000D01*
X117851000Y-73349000D01*
X117851000Y-75451000D01*
G37*
G36*
X81914499Y-74278445D02*
G01*
X81951995Y-74289820D01*
X81986554Y-74308292D01*
X82016847Y-74333153D01*
X82041708Y-74363446D01*
X82060180Y-74398005D01*
X82071555Y-74435501D01*
X82076000Y-74480638D01*
X82076000Y-75119362D01*
X82071555Y-75164499D01*
X82060180Y-75201995D01*
X82041708Y-75236554D01*
X82016847Y-75266847D01*
X81986554Y-75291708D01*
X81951995Y-75310180D01*
X81914499Y-75321555D01*
X81869362Y-75326000D01*
X81130638Y-75326000D01*
X81085501Y-75321555D01*
X81048005Y-75310180D01*
X81013446Y-75291708D01*
X80983153Y-75266847D01*
X80958292Y-75236554D01*
X80939820Y-75201995D01*
X80928445Y-75164499D01*
X80924000Y-75119362D01*
X80924000Y-74480638D01*
X80928445Y-74435501D01*
X80939820Y-74398005D01*
X80958292Y-74363446D01*
X80983153Y-74333153D01*
X81013446Y-74308292D01*
X81048005Y-74289820D01*
X81085501Y-74278445D01*
X81130638Y-74274000D01*
X81869362Y-74274000D01*
X81914499Y-74278445D01*
G37*
G36*
X89064499Y-74278445D02*
G01*
X89101995Y-74289820D01*
X89136554Y-74308292D01*
X89166847Y-74333153D01*
X89191708Y-74363446D01*
X89210180Y-74398005D01*
X89221555Y-74435501D01*
X89226000Y-74480638D01*
X89226000Y-75119362D01*
X89221555Y-75164499D01*
X89210180Y-75201995D01*
X89191708Y-75236554D01*
X89166847Y-75266847D01*
X89136554Y-75291708D01*
X89101995Y-75310180D01*
X89064499Y-75321555D01*
X89019362Y-75326000D01*
X88280638Y-75326000D01*
X88235501Y-75321555D01*
X88198005Y-75310180D01*
X88163446Y-75291708D01*
X88133153Y-75266847D01*
X88108292Y-75236554D01*
X88089820Y-75201995D01*
X88078445Y-75164499D01*
X88074000Y-75119362D01*
X88074000Y-74480638D01*
X88078445Y-74435501D01*
X88089820Y-74398005D01*
X88108292Y-74363446D01*
X88133153Y-74333153D01*
X88163446Y-74308292D01*
X88198005Y-74289820D01*
X88235501Y-74278445D01*
X88280638Y-74274000D01*
X89019362Y-74274000D01*
X89064499Y-74278445D01*
G37*
G36*
X87314499Y-74278445D02*
G01*
X87351995Y-74289820D01*
X87386554Y-74308292D01*
X87416847Y-74333153D01*
X87441708Y-74363446D01*
X87460180Y-74398005D01*
X87471555Y-74435501D01*
X87476000Y-74480638D01*
X87476000Y-75119362D01*
X87471555Y-75164499D01*
X87460180Y-75201995D01*
X87441708Y-75236554D01*
X87416847Y-75266847D01*
X87386554Y-75291708D01*
X87351995Y-75310180D01*
X87314499Y-75321555D01*
X87269362Y-75326000D01*
X86530638Y-75326000D01*
X86485501Y-75321555D01*
X86448005Y-75310180D01*
X86413446Y-75291708D01*
X86383153Y-75266847D01*
X86358292Y-75236554D01*
X86339820Y-75201995D01*
X86328445Y-75164499D01*
X86324000Y-75119362D01*
X86324000Y-74480638D01*
X86328445Y-74435501D01*
X86339820Y-74398005D01*
X86358292Y-74363446D01*
X86383153Y-74333153D01*
X86413446Y-74308292D01*
X86448005Y-74289820D01*
X86485501Y-74278445D01*
X86530638Y-74274000D01*
X87269362Y-74274000D01*
X87314499Y-74278445D01*
G37*
G36*
X83664499Y-74278445D02*
G01*
X83701995Y-74289820D01*
X83736554Y-74308292D01*
X83766847Y-74333153D01*
X83791708Y-74363446D01*
X83810180Y-74398005D01*
X83821555Y-74435501D01*
X83826000Y-74480638D01*
X83826000Y-75119362D01*
X83821555Y-75164499D01*
X83810180Y-75201995D01*
X83791708Y-75236554D01*
X83766847Y-75266847D01*
X83736554Y-75291708D01*
X83701995Y-75310180D01*
X83664499Y-75321555D01*
X83619362Y-75326000D01*
X82880638Y-75326000D01*
X82835501Y-75321555D01*
X82798005Y-75310180D01*
X82763446Y-75291708D01*
X82733153Y-75266847D01*
X82708292Y-75236554D01*
X82689820Y-75201995D01*
X82678445Y-75164499D01*
X82674000Y-75119362D01*
X82674000Y-74480638D01*
X82678445Y-74435501D01*
X82689820Y-74398005D01*
X82708292Y-74363446D01*
X82733153Y-74333153D01*
X82763446Y-74308292D01*
X82798005Y-74289820D01*
X82835501Y-74278445D01*
X82880638Y-74274000D01*
X83619362Y-74274000D01*
X83664499Y-74278445D01*
G37*
G36*
X100739499Y-74228445D02*
G01*
X100776995Y-74239820D01*
X100811554Y-74258292D01*
X100841847Y-74283153D01*
X100866708Y-74313446D01*
X100885180Y-74348005D01*
X100896555Y-74385501D01*
X100901000Y-74430638D01*
X100901000Y-75069362D01*
X100896555Y-75114499D01*
X100885180Y-75151995D01*
X100866708Y-75186554D01*
X100841847Y-75216847D01*
X100811554Y-75241708D01*
X100776995Y-75260180D01*
X100739499Y-75271555D01*
X100694362Y-75276000D01*
X99955638Y-75276000D01*
X99910501Y-75271555D01*
X99873005Y-75260180D01*
X99838446Y-75241708D01*
X99808153Y-75216847D01*
X99783292Y-75186554D01*
X99764820Y-75151995D01*
X99753445Y-75114499D01*
X99749000Y-75069362D01*
X99749000Y-74430638D01*
X99753445Y-74385501D01*
X99764820Y-74348005D01*
X99783292Y-74313446D01*
X99808153Y-74283153D01*
X99838446Y-74258292D01*
X99873005Y-74239820D01*
X99910501Y-74228445D01*
X99955638Y-74224000D01*
X100694362Y-74224000D01*
X100739499Y-74228445D01*
G37*
G36*
X102489499Y-74228445D02*
G01*
X102526995Y-74239820D01*
X102561554Y-74258292D01*
X102591847Y-74283153D01*
X102616708Y-74313446D01*
X102635180Y-74348005D01*
X102646555Y-74385501D01*
X102651000Y-74430638D01*
X102651000Y-75069362D01*
X102646555Y-75114499D01*
X102635180Y-75151995D01*
X102616708Y-75186554D01*
X102591847Y-75216847D01*
X102561554Y-75241708D01*
X102526995Y-75260180D01*
X102489499Y-75271555D01*
X102444362Y-75276000D01*
X101705638Y-75276000D01*
X101660501Y-75271555D01*
X101623005Y-75260180D01*
X101588446Y-75241708D01*
X101558153Y-75216847D01*
X101533292Y-75186554D01*
X101514820Y-75151995D01*
X101503445Y-75114499D01*
X101499000Y-75069362D01*
X101499000Y-74430638D01*
X101503445Y-74385501D01*
X101514820Y-74348005D01*
X101533292Y-74313446D01*
X101558153Y-74283153D01*
X101588446Y-74258292D01*
X101623005Y-74239820D01*
X101660501Y-74228445D01*
X101705638Y-74224000D01*
X102444362Y-74224000D01*
X102489499Y-74228445D01*
G37*
G36*
X130838674Y-74003465D02*
G01*
X130876367Y-74014899D01*
X130911103Y-74033466D01*
X130941548Y-74058452D01*
X130966534Y-74088897D01*
X130985101Y-74123633D01*
X130996535Y-74161326D01*
X131001000Y-74206661D01*
X131001000Y-75043339D01*
X130996535Y-75088674D01*
X130985101Y-75126367D01*
X130966534Y-75161103D01*
X130941548Y-75191548D01*
X130911103Y-75216534D01*
X130876367Y-75235101D01*
X130838674Y-75246535D01*
X130793339Y-75251000D01*
X129706661Y-75251000D01*
X129661326Y-75246535D01*
X129623633Y-75235101D01*
X129588897Y-75216534D01*
X129558452Y-75191548D01*
X129533466Y-75161103D01*
X129514899Y-75126367D01*
X129503465Y-75088674D01*
X129499000Y-75043339D01*
X129499000Y-74206661D01*
X129503465Y-74161326D01*
X129514899Y-74123633D01*
X129533466Y-74088897D01*
X129558452Y-74058452D01*
X129588897Y-74033466D01*
X129623633Y-74014899D01*
X129661326Y-74003465D01*
X129706661Y-73999000D01*
X130793339Y-73999000D01*
X130838674Y-74003465D01*
G37*
G36*
X108064499Y-74078445D02*
G01*
X108101995Y-74089820D01*
X108136554Y-74108292D01*
X108166847Y-74133153D01*
X108191708Y-74163446D01*
X108210180Y-74198005D01*
X108221555Y-74235501D01*
X108226000Y-74280638D01*
X108226000Y-74919362D01*
X108221555Y-74964499D01*
X108210180Y-75001995D01*
X108191708Y-75036554D01*
X108166847Y-75066847D01*
X108136554Y-75091708D01*
X108101995Y-75110180D01*
X108064499Y-75121555D01*
X108019362Y-75126000D01*
X107280638Y-75126000D01*
X107235501Y-75121555D01*
X107198005Y-75110180D01*
X107163446Y-75091708D01*
X107133153Y-75066847D01*
X107108292Y-75036554D01*
X107089820Y-75001995D01*
X107078445Y-74964499D01*
X107074000Y-74919362D01*
X107074000Y-74280638D01*
X107078445Y-74235501D01*
X107089820Y-74198005D01*
X107108292Y-74163446D01*
X107133153Y-74133153D01*
X107163446Y-74108292D01*
X107198005Y-74089820D01*
X107235501Y-74078445D01*
X107280638Y-74074000D01*
X108019362Y-74074000D01*
X108064499Y-74078445D01*
G37*
G36*
X106314499Y-74078445D02*
G01*
X106351995Y-74089820D01*
X106386554Y-74108292D01*
X106416847Y-74133153D01*
X106441708Y-74163446D01*
X106460180Y-74198005D01*
X106471555Y-74235501D01*
X106476000Y-74280638D01*
X106476000Y-74919362D01*
X106471555Y-74964499D01*
X106460180Y-75001995D01*
X106441708Y-75036554D01*
X106416847Y-75066847D01*
X106386554Y-75091708D01*
X106351995Y-75110180D01*
X106314499Y-75121555D01*
X106269362Y-75126000D01*
X105530638Y-75126000D01*
X105485501Y-75121555D01*
X105448005Y-75110180D01*
X105413446Y-75091708D01*
X105383153Y-75066847D01*
X105358292Y-75036554D01*
X105339820Y-75001995D01*
X105328445Y-74964499D01*
X105324000Y-74919362D01*
X105324000Y-74280638D01*
X105328445Y-74235501D01*
X105339820Y-74198005D01*
X105358292Y-74163446D01*
X105383153Y-74133153D01*
X105413446Y-74108292D01*
X105448005Y-74089820D01*
X105485501Y-74078445D01*
X105530638Y-74074000D01*
X106269362Y-74074000D01*
X106314499Y-74078445D01*
G37*
G36*
X124114499Y-73803445D02*
G01*
X124151995Y-73814820D01*
X124186554Y-73833292D01*
X124216847Y-73858153D01*
X124241708Y-73888446D01*
X124260180Y-73923005D01*
X124271555Y-73960501D01*
X124276000Y-74005638D01*
X124276000Y-74744362D01*
X124271555Y-74789499D01*
X124260180Y-74826995D01*
X124241708Y-74861554D01*
X124216847Y-74891847D01*
X124186554Y-74916708D01*
X124151995Y-74935180D01*
X124114499Y-74946555D01*
X124069362Y-74951000D01*
X123430638Y-74951000D01*
X123385501Y-74946555D01*
X123348005Y-74935180D01*
X123313446Y-74916708D01*
X123283153Y-74891847D01*
X123258292Y-74861554D01*
X123239820Y-74826995D01*
X123228445Y-74789499D01*
X123224000Y-74744362D01*
X123224000Y-74005638D01*
X123228445Y-73960501D01*
X123239820Y-73923005D01*
X123258292Y-73888446D01*
X123283153Y-73858153D01*
X123313446Y-73833292D01*
X123348005Y-73814820D01*
X123385501Y-73803445D01*
X123430638Y-73799000D01*
X124069362Y-73799000D01*
X124114499Y-73803445D01*
G37*
G36*
X127064499Y-73803445D02*
G01*
X127101995Y-73814820D01*
X127136554Y-73833292D01*
X127166847Y-73858153D01*
X127191708Y-73888446D01*
X127210180Y-73923005D01*
X127221555Y-73960501D01*
X127226000Y-74005638D01*
X127226000Y-74744362D01*
X127221555Y-74789499D01*
X127210180Y-74826995D01*
X127191708Y-74861554D01*
X127166847Y-74891847D01*
X127136554Y-74916708D01*
X127101995Y-74935180D01*
X127064499Y-74946555D01*
X127019362Y-74951000D01*
X126380638Y-74951000D01*
X126335501Y-74946555D01*
X126298005Y-74935180D01*
X126263446Y-74916708D01*
X126233153Y-74891847D01*
X126208292Y-74861554D01*
X126189820Y-74826995D01*
X126178445Y-74789499D01*
X126174000Y-74744362D01*
X126174000Y-74005638D01*
X126178445Y-73960501D01*
X126189820Y-73923005D01*
X126208292Y-73888446D01*
X126233153Y-73858153D01*
X126263446Y-73833292D01*
X126298005Y-73814820D01*
X126335501Y-73803445D01*
X126380638Y-73799000D01*
X127019362Y-73799000D01*
X127064499Y-73803445D01*
G37*
G36*
X121114499Y-73678445D02*
G01*
X121151995Y-73689820D01*
X121186554Y-73708292D01*
X121216847Y-73733153D01*
X121241708Y-73763446D01*
X121260180Y-73798005D01*
X121271555Y-73835501D01*
X121276000Y-73880638D01*
X121276000Y-74619362D01*
X121271555Y-74664499D01*
X121260180Y-74701995D01*
X121241708Y-74736554D01*
X121216847Y-74766847D01*
X121186554Y-74791708D01*
X121151995Y-74810180D01*
X121114499Y-74821555D01*
X121069362Y-74826000D01*
X120430638Y-74826000D01*
X120385501Y-74821555D01*
X120348005Y-74810180D01*
X120313446Y-74791708D01*
X120283153Y-74766847D01*
X120258292Y-74736554D01*
X120239820Y-74701995D01*
X120228445Y-74664499D01*
X120224000Y-74619362D01*
X120224000Y-73880638D01*
X120228445Y-73835501D01*
X120239820Y-73798005D01*
X120258292Y-73763446D01*
X120283153Y-73733153D01*
X120313446Y-73708292D01*
X120348005Y-73689820D01*
X120385501Y-73678445D01*
X120430638Y-73674000D01*
X121069362Y-73674000D01*
X121114499Y-73678445D01*
G37*
G36*
X93651000Y-74051000D02*
G01*
X92249000Y-74051000D01*
X92249000Y-72649000D01*
X93651000Y-72649000D01*
X93651000Y-74051000D01*
G37*
G36*
X112351000Y-73951000D02*
G01*
X110949000Y-73951000D01*
X110949000Y-72549000D01*
X112351000Y-72549000D01*
X112351000Y-73951000D01*
G37*
G36*
X124114499Y-72053445D02*
G01*
X124151995Y-72064820D01*
X124186554Y-72083292D01*
X124216847Y-72108153D01*
X124241708Y-72138446D01*
X124260180Y-72173005D01*
X124271555Y-72210501D01*
X124276000Y-72255638D01*
X124276000Y-72994362D01*
X124271555Y-73039499D01*
X124260180Y-73076995D01*
X124241708Y-73111554D01*
X124216847Y-73141847D01*
X124186554Y-73166708D01*
X124151995Y-73185180D01*
X124114499Y-73196555D01*
X124069362Y-73201000D01*
X123430638Y-73201000D01*
X123385501Y-73196555D01*
X123348005Y-73185180D01*
X123313446Y-73166708D01*
X123283153Y-73141847D01*
X123258292Y-73111554D01*
X123239820Y-73076995D01*
X123228445Y-73039499D01*
X123224000Y-72994362D01*
X123224000Y-72255638D01*
X123228445Y-72210501D01*
X123239820Y-72173005D01*
X123258292Y-72138446D01*
X123283153Y-72108153D01*
X123313446Y-72083292D01*
X123348005Y-72064820D01*
X123385501Y-72053445D01*
X123430638Y-72049000D01*
X124069362Y-72049000D01*
X124114499Y-72053445D01*
G37*
G36*
X130838674Y-71953465D02*
G01*
X130876367Y-71964899D01*
X130911103Y-71983466D01*
X130941548Y-72008452D01*
X130966534Y-72038897D01*
X130985101Y-72073633D01*
X130996535Y-72111326D01*
X131001000Y-72156661D01*
X131001000Y-72993339D01*
X130996535Y-73038674D01*
X130985101Y-73076367D01*
X130966534Y-73111103D01*
X130941548Y-73141548D01*
X130911103Y-73166534D01*
X130876367Y-73185101D01*
X130838674Y-73196535D01*
X130793339Y-73201000D01*
X129706661Y-73201000D01*
X129661326Y-73196535D01*
X129623633Y-73185101D01*
X129588897Y-73166534D01*
X129558452Y-73141548D01*
X129533466Y-73111103D01*
X129514899Y-73076367D01*
X129503465Y-73038674D01*
X129499000Y-72993339D01*
X129499000Y-72156661D01*
X129503465Y-72111326D01*
X129514899Y-72073633D01*
X129533466Y-72038897D01*
X129558452Y-72008452D01*
X129588897Y-71983466D01*
X129623633Y-71964899D01*
X129661326Y-71953465D01*
X129706661Y-71949000D01*
X130793339Y-71949000D01*
X130838674Y-71953465D01*
G37*
G36*
X127064499Y-72053445D02*
G01*
X127101995Y-72064820D01*
X127136554Y-72083292D01*
X127166847Y-72108153D01*
X127191708Y-72138446D01*
X127210180Y-72173005D01*
X127221555Y-72210501D01*
X127226000Y-72255638D01*
X127226000Y-72994362D01*
X127221555Y-73039499D01*
X127210180Y-73076995D01*
X127191708Y-73111554D01*
X127166847Y-73141847D01*
X127136554Y-73166708D01*
X127101995Y-73185180D01*
X127064499Y-73196555D01*
X127019362Y-73201000D01*
X126380638Y-73201000D01*
X126335501Y-73196555D01*
X126298005Y-73185180D01*
X126263446Y-73166708D01*
X126233153Y-73141847D01*
X126208292Y-73111554D01*
X126189820Y-73076995D01*
X126178445Y-73039499D01*
X126174000Y-72994362D01*
X126174000Y-72255638D01*
X126178445Y-72210501D01*
X126189820Y-72173005D01*
X126208292Y-72138446D01*
X126233153Y-72108153D01*
X126263446Y-72083292D01*
X126298005Y-72064820D01*
X126335501Y-72053445D01*
X126380638Y-72049000D01*
X127019362Y-72049000D01*
X127064499Y-72053445D01*
G37*
G36*
X121114499Y-71928445D02*
G01*
X121151995Y-71939820D01*
X121186554Y-71958292D01*
X121216847Y-71983153D01*
X121241708Y-72013446D01*
X121260180Y-72048005D01*
X121271555Y-72085501D01*
X121276000Y-72130638D01*
X121276000Y-72869362D01*
X121271555Y-72914499D01*
X121260180Y-72951995D01*
X121241708Y-72986554D01*
X121216847Y-73016847D01*
X121186554Y-73041708D01*
X121151995Y-73060180D01*
X121114499Y-73071555D01*
X121069362Y-73076000D01*
X120430638Y-73076000D01*
X120385501Y-73071555D01*
X120348005Y-73060180D01*
X120313446Y-73041708D01*
X120283153Y-73016847D01*
X120258292Y-72986554D01*
X120239820Y-72951995D01*
X120228445Y-72914499D01*
X120224000Y-72869362D01*
X120224000Y-72130638D01*
X120228445Y-72085501D01*
X120239820Y-72048005D01*
X120258292Y-72013446D01*
X120283153Y-71983153D01*
X120313446Y-71958292D01*
X120348005Y-71939820D01*
X120385501Y-71928445D01*
X120430638Y-71924000D01*
X121069362Y-71924000D01*
X121114499Y-71928445D01*
G37*
M02*
