EESchema Schematic File Version 4
EELAYER 30 0
EELAYER END
$Descr A4 11693 8268
encoding utf-8
Sheet 1 1
Title ""
Date ""
Rev ""
Comp ""
Comment1 ""
Comment2 ""
Comment3 ""
Comment4 ""
$EndDescr
$Comp
L Connector:USB_B_Micro J1
U 1 1 5E8CA1F6
P 900 1575
F 0 "J1" H 957 2042 50  0000 C CNN
F 1 "USB_B_Micro" H 957 1951 50  0000 C CNN
F 2 "Connector_USB:USB_Micro-B_Molex_47346-0001" H 1050 1525 50  0001 C CNN
F 3 "~" H 1050 1525 50  0001 C CNN
	1    900  1575
	1    0    0    -1  
$EndComp
$Comp
L Device:R R2
U 1 1 5E8CCEEE
P 2000 1450
F 0 "R2" H 2070 1496 50  0000 L CNN
F 1 "220R" H 2070 1405 50  0000 L CNN
F 2 "Resistor_SMD:R_0603_1608Metric_Pad1.05x0.95mm_HandSolder" V 1930 1450 50  0001 C CNN
F 3 "~" H 2000 1450 50  0001 C CNN
	1    2000 1450
	1    0    0    -1  
$EndComp
$Comp
L Device:R R6
U 1 1 5E8CD1FF
P 3075 1450
F 0 "R6" H 3145 1496 50  0000 L CNN
F 1 "100R" H 3145 1405 50  0000 L CNN
F 2 "Resistor_SMD:R_0603_1608Metric_Pad1.05x0.95mm_HandSolder" V 3005 1450 50  0001 C CNN
F 3 "~" H 3075 1450 50  0001 C CNN
	1    3075 1450
	1    0    0    -1  
$EndComp
$Comp
L Device:R_POT RV2
U 1 1 5E8CD7C1
P 4075 1450
F 0 "RV2" H 3975 1550 50  0000 R CNN
F 1 "R_POT" V 4175 1750 50  0000 R CNN
F 2 "Potentiometer_SMD:Potentiometer_Bourns_3314G_Vertical" H 4075 1450 50  0001 C CNN
F 3 "~" H 4075 1450 50  0001 C CNN
	1    4075 1450
	1    0    0    -1  
$EndComp
$Comp
L Device:R R4
U 1 1 5E8CF2F1
P 2525 1450
F 0 "R4" H 2595 1496 50  0000 L CNN
F 1 "220R" H 2595 1405 50  0000 L CNN
F 2 "Resistor_SMD:R_0603_1608Metric_Pad1.05x0.95mm_HandSolder" V 2455 1450 50  0001 C CNN
F 3 "~" H 2525 1450 50  0001 C CNN
	1    2525 1450
	1    0    0    -1  
$EndComp
$Comp
L Device:R R8
U 1 1 5E8CF713
P 3625 1450
F 0 "R8" H 3695 1496 50  0000 L CNN
F 1 "100R" H 3695 1405 50  0000 L CNN
F 2 "Resistor_SMD:R_0603_1608Metric_Pad1.05x0.95mm_HandSolder" V 3555 1450 50  0001 C CNN
F 3 "~" H 3625 1450 50  0001 C CNN
	1    3625 1450
	1    0    0    -1  
$EndComp
$Comp
L Connector_Generic:Conn_01x02 J3
U 1 1 5E8DEC39
P 1800 1800
F 0 "J3" H 1800 1600 50  0000 C CNN
F 1 "Conn_01x02" V 1900 1875 50  0000 C CNN
F 2 "Connector_PinHeader_2.54mm:PinHeader_1x02_P2.54mm_Vertical" H 1800 1800 50  0001 C CNN
F 3 "~" H 1800 1800 50  0001 C CNN
	1    1800 1800
	-1   0    0    1   
$EndComp
$Comp
L Connector_Generic:Conn_01x02 J5
U 1 1 5E8DFA98
P 2325 1800
F 0 "J5" H 2325 1600 50  0000 C CNN
F 1 "Conn_01x02" V 2425 1900 50  0000 C CNN
F 2 "Connector_PinHeader_2.54mm:PinHeader_1x02_P2.54mm_Vertical" H 2325 1800 50  0001 C CNN
F 3 "~" H 2325 1800 50  0001 C CNN
	1    2325 1800
	-1   0    0    1   
$EndComp
$Comp
L Connector_Generic:Conn_01x02 J7
U 1 1 5E8E50FD
P 2875 1800
F 0 "J7" H 2875 1600 50  0000 C CNN
F 1 "Conn_01x02" V 2975 1875 50  0000 C CNN
F 2 "Connector_PinHeader_2.54mm:PinHeader_1x02_P2.54mm_Vertical" H 2875 1800 50  0001 C CNN
F 3 "~" H 2875 1800 50  0001 C CNN
	1    2875 1800
	-1   0    0    1   
$EndComp
Wire Wire Line
	2000 1700 2000 1600
Wire Wire Line
	2525 1700 2525 1600
Wire Wire Line
	3075 1700 3075 1600
$Comp
L power:GND #PWR04
U 1 1 5E8F02B6
P 2000 1900
F 0 "#PWR04" H 2000 1650 50  0001 C CNN
F 1 "GND" H 2005 1727 50  0000 C CNN
F 2 "" H 2000 1900 50  0001 C CNN
F 3 "" H 2000 1900 50  0001 C CNN
	1    2000 1900
	1    0    0    -1  
$EndComp
Wire Wire Line
	2000 1900 2000 1800
$Comp
L power:GND #PWR06
U 1 1 5E8F0C3F
P 2525 1900
F 0 "#PWR06" H 2525 1650 50  0001 C CNN
F 1 "GND" H 2530 1727 50  0000 C CNN
F 2 "" H 2525 1900 50  0001 C CNN
F 3 "" H 2525 1900 50  0001 C CNN
	1    2525 1900
	1    0    0    -1  
$EndComp
Wire Wire Line
	2525 1900 2525 1800
$Comp
L power:GND #PWR010
U 1 1 5E8F15F2
P 3075 1900
F 0 "#PWR010" H 3075 1650 50  0001 C CNN
F 1 "GND" H 3080 1727 50  0000 C CNN
F 2 "" H 3075 1900 50  0001 C CNN
F 3 "" H 3075 1900 50  0001 C CNN
	1    3075 1900
	1    0    0    -1  
$EndComp
Wire Wire Line
	3075 1900 3075 1800
$Comp
L Connector_Generic:Conn_01x02 J9
U 1 1 5E8F1DD0
P 3425 1800
F 0 "J9" H 3425 1600 50  0000 C CNN
F 1 "Conn_01x02" V 3525 1875 50  0000 C CNN
F 2 "Connector_PinHeader_2.54mm:PinHeader_1x02_P2.54mm_Vertical" H 3425 1800 50  0001 C CNN
F 3 "~" H 3425 1800 50  0001 C CNN
	1    3425 1800
	-1   0    0    1   
$EndComp
Wire Wire Line
	3625 1700 3625 1600
$Comp
L power:GND #PWR012
U 1 1 5E8F3A06
P 3625 1900
F 0 "#PWR012" H 3625 1650 50  0001 C CNN
F 1 "GND" H 3630 1727 50  0000 C CNN
F 2 "" H 3625 1900 50  0001 C CNN
F 3 "" H 3625 1900 50  0001 C CNN
	1    3625 1900
	1    0    0    -1  
$EndComp
Wire Wire Line
	3625 1900 3625 1800
$Comp
L power:GND #PWR014
U 1 1 5E8F8B9F
P 4075 1900
F 0 "#PWR014" H 4075 1650 50  0001 C CNN
F 1 "GND" H 4080 1727 50  0000 C CNN
F 2 "" H 4075 1900 50  0001 C CNN
F 3 "" H 4075 1900 50  0001 C CNN
	1    4075 1900
	1    0    0    -1  
$EndComp
Wire Wire Line
	4075 1900 4075 1800
$Comp
L power:+3.3V #PWR09
U 1 1 5E8F9BCB
P 3075 1200
F 0 "#PWR09" H 3075 1050 50  0001 C CNN
F 1 "+3.3V" H 3090 1373 50  0000 C CNN
F 2 "" H 3075 1200 50  0001 C CNN
F 3 "" H 3075 1200 50  0001 C CNN
	1    3075 1200
	1    0    0    -1  
$EndComp
Wire Wire Line
	2000 1300 2000 1250
Wire Wire Line
	2000 1250 2525 1250
Wire Wire Line
	3075 1250 3075 1200
Wire Wire Line
	3075 1300 3075 1250
Connection ~ 3075 1250
Wire Wire Line
	3075 1250 3625 1250
Wire Wire Line
	3625 1300 3625 1250
Connection ~ 3625 1250
Wire Wire Line
	2525 1300 2525 1250
Connection ~ 2525 1250
Wire Wire Line
	2525 1250 3075 1250
$Comp
L power:+5V #PWR02
U 1 1 5E90268A
P 1325 1325
F 0 "#PWR02" H 1325 1175 50  0001 C CNN
F 1 "+5V" H 1340 1498 50  0000 C CNN
F 2 "" H 1325 1325 50  0001 C CNN
F 3 "" H 1325 1325 50  0001 C CNN
	1    1325 1325
	1    0    0    -1  
$EndComp
Wire Wire Line
	1200 1375 1325 1375
Wire Wire Line
	1325 1375 1325 1325
$Comp
L power:GND #PWR01
U 1 1 5E9046C4
P 850 2100
F 0 "#PWR01" H 850 1850 50  0001 C CNN
F 1 "GND" H 855 1927 50  0000 C CNN
F 2 "" H 850 2100 50  0001 C CNN
F 3 "" H 850 2100 50  0001 C CNN
	1    850  2100
	1    0    0    -1  
$EndComp
Wire Wire Line
	800  1975 800  2050
Wire Wire Line
	800  2050 850  2050
Wire Wire Line
	900  2050 900  1975
Wire Wire Line
	850  2100 850  2050
Connection ~ 850  2050
Wire Wire Line
	850  2050 900  2050
NoConn ~ 1200 1575
NoConn ~ 1200 1675
NoConn ~ 1200 1775
Wire Wire Line
	4075 1700 4075 1600
$Comp
L Connector_Generic:Conn_01x02 J11
U 1 1 5E9195A1
P 3875 1800
F 0 "J11" H 3875 1600 50  0000 C CNN
F 1 "Conn_01x02" V 3975 1875 50  0000 C CNN
F 2 "Connector_PinHeader_2.54mm:PinHeader_1x02_P2.54mm_Vertical" H 3875 1800 50  0001 C CNN
F 3 "~" H 3875 1800 50  0001 C CNN
	1    3875 1800
	-1   0    0    1   
$EndComp
$Comp
L Device:R R1
U 1 1 5E921DE1
P 1925 2850
F 0 "R1" H 1995 2896 50  0000 L CNN
F 1 "220R" H 1995 2805 50  0000 L CNN
F 2 "Resistor_SMD:R_0603_1608Metric_Pad1.05x0.95mm_HandSolder" V 1855 2850 50  0001 C CNN
F 3 "~" H 1925 2850 50  0001 C CNN
	1    1925 2850
	1    0    0    -1  
$EndComp
$Comp
L Device:R R5
U 1 1 5E921DEB
P 3000 2850
F 0 "R5" H 3070 2896 50  0000 L CNN
F 1 "100R" H 3070 2805 50  0000 L CNN
F 2 "Resistor_SMD:R_0603_1608Metric_Pad1.05x0.95mm_HandSolder" V 2930 2850 50  0001 C CNN
F 3 "~" H 3000 2850 50  0001 C CNN
	1    3000 2850
	1    0    0    -1  
$EndComp
$Comp
L Device:R R3
U 1 1 5E921DFF
P 2450 2850
F 0 "R3" H 2520 2896 50  0000 L CNN
F 1 "220R" H 2520 2805 50  0000 L CNN
F 2 "Resistor_SMD:R_0603_1608Metric_Pad1.05x0.95mm_HandSolder" V 2380 2850 50  0001 C CNN
F 3 "~" H 2450 2850 50  0001 C CNN
	1    2450 2850
	1    0    0    -1  
$EndComp
$Comp
L Device:R R7
U 1 1 5E921E09
P 3550 2850
F 0 "R7" H 3620 2896 50  0000 L CNN
F 1 "100R" H 3620 2805 50  0000 L CNN
F 2 "Resistor_SMD:R_0603_1608Metric_Pad1.05x0.95mm_HandSolder" V 3480 2850 50  0001 C CNN
F 3 "~" H 3550 2850 50  0001 C CNN
	1    3550 2850
	1    0    0    -1  
$EndComp
$Comp
L Connector_Generic:Conn_01x02 J2
U 1 1 5E921E13
P 1725 3200
F 0 "J2" H 1725 3000 50  0000 C CNN
F 1 "Conn_01x02" V 1825 3275 50  0000 C CNN
F 2 "Connector_PinHeader_2.54mm:PinHeader_1x02_P2.54mm_Vertical" H 1725 3200 50  0001 C CNN
F 3 "~" H 1725 3200 50  0001 C CNN
	1    1725 3200
	-1   0    0    1   
$EndComp
$Comp
L Connector_Generic:Conn_01x02 J4
U 1 1 5E921E1D
P 2250 3200
F 0 "J4" H 2250 3000 50  0000 C CNN
F 1 "Conn_01x02" V 2350 3300 50  0000 C CNN
F 2 "Connector_PinHeader_2.54mm:PinHeader_1x02_P2.54mm_Vertical" H 2250 3200 50  0001 C CNN
F 3 "~" H 2250 3200 50  0001 C CNN
	1    2250 3200
	-1   0    0    1   
$EndComp
$Comp
L Connector_Generic:Conn_01x02 J6
U 1 1 5E921E27
P 2800 3200
F 0 "J6" H 2800 3000 50  0000 C CNN
F 1 "Conn_01x02" V 2900 3275 50  0000 C CNN
F 2 "Connector_PinHeader_2.54mm:PinHeader_1x02_P2.54mm_Vertical" H 2800 3200 50  0001 C CNN
F 3 "~" H 2800 3200 50  0001 C CNN
	1    2800 3200
	-1   0    0    1   
$EndComp
Wire Wire Line
	1925 3100 1925 3000
Wire Wire Line
	2450 3100 2450 3000
Wire Wire Line
	3000 3100 3000 3000
$Comp
L power:GND #PWR03
U 1 1 5E921E34
P 1925 3300
F 0 "#PWR03" H 1925 3050 50  0001 C CNN
F 1 "GND" H 1930 3127 50  0000 C CNN
F 2 "" H 1925 3300 50  0001 C CNN
F 3 "" H 1925 3300 50  0001 C CNN
	1    1925 3300
	1    0    0    -1  
$EndComp
Wire Wire Line
	1925 3300 1925 3200
$Comp
L power:GND #PWR05
U 1 1 5E921E3F
P 2450 3300
F 0 "#PWR05" H 2450 3050 50  0001 C CNN
F 1 "GND" H 2455 3127 50  0000 C CNN
F 2 "" H 2450 3300 50  0001 C CNN
F 3 "" H 2450 3300 50  0001 C CNN
	1    2450 3300
	1    0    0    -1  
$EndComp
Wire Wire Line
	2450 3300 2450 3200
$Comp
L power:GND #PWR08
U 1 1 5E921E4A
P 3000 3300
F 0 "#PWR08" H 3000 3050 50  0001 C CNN
F 1 "GND" H 3005 3127 50  0000 C CNN
F 2 "" H 3000 3300 50  0001 C CNN
F 3 "" H 3000 3300 50  0001 C CNN
	1    3000 3300
	1    0    0    -1  
$EndComp
Wire Wire Line
	3000 3300 3000 3200
$Comp
L Connector_Generic:Conn_01x02 J8
U 1 1 5E921E55
P 3350 3200
F 0 "J8" H 3350 3000 50  0000 C CNN
F 1 "Conn_01x02" V 3450 3275 50  0000 C CNN
F 2 "Connector_PinHeader_2.54mm:PinHeader_1x02_P2.54mm_Vertical" H 3350 3200 50  0001 C CNN
F 3 "~" H 3350 3200 50  0001 C CNN
	1    3350 3200
	-1   0    0    1   
$EndComp
Wire Wire Line
	3550 3100 3550 3000
$Comp
L power:GND #PWR011
U 1 1 5E921E60
P 3550 3300
F 0 "#PWR011" H 3550 3050 50  0001 C CNN
F 1 "GND" H 3555 3127 50  0000 C CNN
F 2 "" H 3550 3300 50  0001 C CNN
F 3 "" H 3550 3300 50  0001 C CNN
	1    3550 3300
	1    0    0    -1  
$EndComp
Wire Wire Line
	3550 3300 3550 3200
$Comp
L power:GND #PWR013
U 1 1 5E921E6B
P 4000 3300
F 0 "#PWR013" H 4000 3050 50  0001 C CNN
F 1 "GND" H 4005 3127 50  0000 C CNN
F 2 "" H 4000 3300 50  0001 C CNN
F 3 "" H 4000 3300 50  0001 C CNN
	1    4000 3300
	1    0    0    -1  
$EndComp
Wire Wire Line
	4000 3300 4000 3200
Wire Wire Line
	1925 2700 1925 2650
Wire Wire Line
	1925 2650 2450 2650
Wire Wire Line
	3000 2650 3000 2600
Wire Wire Line
	3000 2700 3000 2650
Connection ~ 3000 2650
Wire Wire Line
	3000 2650 3550 2650
Wire Wire Line
	3550 2700 3550 2650
Connection ~ 3550 2650
Wire Wire Line
	2450 2700 2450 2650
Connection ~ 2450 2650
Wire Wire Line
	2450 2650 3000 2650
Wire Wire Line
	4000 3100 4000 3000
$Comp
L Connector_Generic:Conn_01x02 J10
U 1 1 5E921E8E
P 3800 3200
F 0 "J10" H 3800 3000 50  0000 C CNN
F 1 "Conn_01x02" V 3900 3275 50  0000 C CNN
F 2 "Connector_PinHeader_2.54mm:PinHeader_1x02_P2.54mm_Vertical" H 3800 3200 50  0001 C CNN
F 3 "~" H 3800 3200 50  0001 C CNN
	1    3800 3200
	-1   0    0    1   
$EndComp
$Comp
L power:+5V #PWR07
U 1 1 5E92D187
P 3000 2600
F 0 "#PWR07" H 3000 2450 50  0001 C CNN
F 1 "+5V" H 3015 2773 50  0000 C CNN
F 2 "" H 3000 2600 50  0001 C CNN
F 3 "" H 3000 2600 50  0001 C CNN
	1    3000 2600
	1    0    0    -1  
$EndComp
$Comp
L power:GND #PWR0101
U 1 1 5ED001C4
P 5300 1900
F 0 "#PWR0101" H 5300 1650 50  0001 C CNN
F 1 "GND" H 5305 1727 50  0000 C CNN
F 2 "" H 5300 1900 50  0001 C CNN
F 3 "" H 5300 1900 50  0001 C CNN
	1    5300 1900
	1    0    0    -1  
$EndComp
Wire Wire Line
	5300 1900 5300 1800
$Comp
L Device:R R10
U 1 1 5ED019DC
P 5725 1700
F 0 "R10" H 5795 1746 50  0000 L CNN
F 1 "R" H 5795 1655 50  0000 L CNN
F 2 "Resistor_SMD:R_0603_1608Metric_Pad1.05x0.95mm_HandSolder" V 5655 1700 50  0001 C CNN
F 3 "~" H 5725 1700 50  0001 C CNN
	1    5725 1700
	1    0    0    -1  
$EndComp
$Comp
L Device:R R9
U 1 1 5ED01DCC
P 4625 1700
F 0 "R9" H 4695 1746 50  0000 L CNN
F 1 "R" H 4695 1655 50  0000 L CNN
F 2 "Resistor_SMD:R_0603_1608Metric_Pad1.05x0.95mm_HandSolder" V 4555 1700 50  0001 C CNN
F 3 "~" H 4625 1700 50  0001 C CNN
	1    4625 1700
	1    0    0    -1  
$EndComp
$Comp
L Device:C C1
U 1 1 5ED02558
P 4875 1700
F 0 "C1" H 4990 1746 50  0000 L CNN
F 1 "C" H 4990 1655 50  0000 L CNN
F 2 "Capacitor_SMD:C_0603_1608Metric_Pad1.05x0.95mm_HandSolder" H 4913 1550 50  0001 C CNN
F 3 "~" H 4875 1700 50  0001 C CNN
	1    4875 1700
	1    0    0    -1  
$EndComp
$Comp
L Regulator_Linear:NCP1117-3.3_SOT223 U2
U 1 1 5ECFA1B4
P 5300 1500
F 0 "U2" H 5300 1742 50  0000 C CNN
F 1 "NCP1117-3.3_SOT223" H 5300 1651 50  0000 C CNN
F 2 "Package_TO_SOT_SMD:SOT-223-3_TabPin2" H 5300 1700 50  0001 C CNN
F 3 "http://www.onsemi.com/pub_link/Collateral/NCP1117-D.PDF" H 5400 1250 50  0001 C CNN
	1    5300 1500
	1    0    0    -1  
$EndComp
Wire Wire Line
	4625 1550 4625 1500
Wire Wire Line
	4625 1500 4875 1500
Wire Wire Line
	4875 1550 4875 1500
Connection ~ 4875 1500
Wire Wire Line
	4875 1500 5000 1500
$Comp
L power:+5V #PWR0102
U 1 1 5ED163FD
P 4550 1475
F 0 "#PWR0102" H 4550 1325 50  0001 C CNN
F 1 "+5V" H 4565 1648 50  0000 C CNN
F 2 "" H 4550 1475 50  0001 C CNN
F 3 "" H 4550 1475 50  0001 C CNN
	1    4550 1475
	1    0    0    -1  
$EndComp
Wire Wire Line
	4625 1500 4550 1500
Wire Wire Line
	4550 1500 4550 1475
Connection ~ 4625 1500
$Comp
L Device:LED D1
U 1 1 5ED19D60
P 4625 2050
F 0 "D1" V 4664 1933 50  0000 R CNN
F 1 "LED" V 4573 1933 50  0000 R CNN
F 2 "LED_SMD:LED_0805_2012Metric_Pad1.15x1.40mm_HandSolder" H 4625 2050 50  0001 C CNN
F 3 "~" H 4625 2050 50  0001 C CNN
	1    4625 2050
	0    -1   -1   0   
$EndComp
Wire Wire Line
	4625 1900 4625 1850
$Comp
L power:GND #PWR0103
U 1 1 5ED1C833
P 4750 2325
F 0 "#PWR0103" H 4750 2075 50  0001 C CNN
F 1 "GND" H 4755 2152 50  0000 C CNN
F 2 "" H 4750 2325 50  0001 C CNN
F 3 "" H 4750 2325 50  0001 C CNN
	1    4750 2325
	1    0    0    -1  
$EndComp
Wire Wire Line
	4625 2200 4625 2250
Wire Wire Line
	4625 2250 4750 2250
Wire Wire Line
	4875 2250 4875 1850
Wire Wire Line
	4750 2325 4750 2250
Connection ~ 4750 2250
Wire Wire Line
	4750 2250 4875 2250
$Comp
L Device:C C2
U 1 1 5ED21FF2
P 5725 2025
F 0 "C2" H 5840 2071 50  0000 L CNN
F 1 "C" H 5840 1980 50  0000 L CNN
F 2 "Capacitor_SMD:C_0603_1608Metric_Pad1.05x0.95mm_HandSolder" H 5763 1875 50  0001 C CNN
F 3 "~" H 5725 2025 50  0001 C CNN
	1    5725 2025
	1    0    0    -1  
$EndComp
Wire Wire Line
	5600 1500 5725 1500
Wire Wire Line
	5725 1500 5725 1550
$Comp
L power:GND #PWR0104
U 1 1 5ED23A8A
P 5725 2200
F 0 "#PWR0104" H 5725 1950 50  0001 C CNN
F 1 "GND" H 5730 2027 50  0000 C CNN
F 2 "" H 5725 2200 50  0001 C CNN
F 3 "" H 5725 2200 50  0001 C CNN
	1    5725 2200
	1    0    0    -1  
$EndComp
Wire Wire Line
	5725 2200 5725 2175
Wire Wire Line
	5725 1850 5725 1875
$Comp
L power:+3.3V #PWR0105
U 1 1 5ED2AF1C
P 5925 1475
F 0 "#PWR0105" H 5925 1325 50  0001 C CNN
F 1 "+3.3V" H 5940 1648 50  0000 C CNN
F 2 "" H 5925 1475 50  0001 C CNN
F 3 "" H 5925 1475 50  0001 C CNN
	1    5925 1475
	1    0    0    -1  
$EndComp
Wire Wire Line
	5725 1500 5925 1500
Wire Wire Line
	5925 1500 5925 1475
Connection ~ 5725 1500
$Comp
L Device:R_POT RV1
U 1 1 5E921DF5
P 4000 2850
F 0 "RV1" H 3900 2950 50  0000 R CNN
F 1 "R_POT" V 4100 3150 50  0000 R CNN
F 2 "Potentiometer_SMD:Potentiometer_Bourns_3314G_Vertical" H 4000 2850 50  0001 C CNN
F 3 "~" H 4000 2850 50  0001 C CNN
	1    4000 2850
	1    0    0    -1  
$EndComp
NoConn ~ 4000 2700
Wire Wire Line
	4250 2650 4250 2850
Wire Wire Line
	4250 2850 4150 2850
Wire Wire Line
	3550 2650 4250 2650
NoConn ~ 4075 1300
Wire Wire Line
	4270 1250 4270 1450
Wire Wire Line
	4270 1450 4225 1450
Wire Wire Line
	3625 1250 4270 1250
$EndSCHEMATC
