G04 #@! TF.GenerationSoftware,KiCad,Pcbnew,5.1.6-c6e7f7d~87~ubuntu18.04.1*
G04 #@! TF.CreationDate,2020-08-07T23:20:09-04:00*
G04 #@! TF.ProjectId,led_tester,6c65645f-7465-4737-9465-722e6b696361,rev?*
G04 #@! TF.SameCoordinates,Original*
G04 #@! TF.FileFunction,Legend,Top*
G04 #@! TF.FilePolarity,Positive*
%FSLAX46Y46*%
G04 Gerber Fmt 4.6, Leading zero omitted, Abs format (unit mm)*
G04 Created by KiCad (PCBNEW 5.1.6-c6e7f7d~87~ubuntu18.04.1) date 2020-08-07 23:20:09*
%MOMM*%
%LPD*%
G01*
G04 APERTURE LIST*
%ADD10C,0.120000*%
%ADD11C,0.150000*%
G04 APERTURE END LIST*
D10*
X118250000Y-71750000D02*
X99500000Y-71750000D01*
X118250000Y-86250000D02*
X118250000Y-71750000D01*
X99500000Y-86250000D02*
X118250000Y-86250000D01*
X99500000Y-71750000D02*
X99500000Y-86250000D01*
X99250000Y-71750000D02*
X80750000Y-71750000D01*
X99250000Y-86250000D02*
X99250000Y-71750000D01*
X80750000Y-86250000D02*
X99250000Y-86250000D01*
X80750000Y-71750000D02*
X80750000Y-86250000D01*
D11*
X101309523Y-72452380D02*
X100833333Y-72452380D01*
X100785714Y-72928571D01*
X100833333Y-72880952D01*
X100928571Y-72833333D01*
X101166666Y-72833333D01*
X101261904Y-72880952D01*
X101309523Y-72928571D01*
X101357142Y-73023809D01*
X101357142Y-73261904D01*
X101309523Y-73357142D01*
X101261904Y-73404761D01*
X101166666Y-73452380D01*
X100928571Y-73452380D01*
X100833333Y-73404761D01*
X100785714Y-73357142D01*
X101642857Y-72452380D02*
X101976190Y-73452380D01*
X102309523Y-72452380D01*
X81023809Y-72452380D02*
X81642857Y-72452380D01*
X81309523Y-72833333D01*
X81452380Y-72833333D01*
X81547619Y-72880952D01*
X81595238Y-72928571D01*
X81642857Y-73023809D01*
X81642857Y-73261904D01*
X81595238Y-73357142D01*
X81547619Y-73404761D01*
X81452380Y-73452380D01*
X81166666Y-73452380D01*
X81071428Y-73404761D01*
X81023809Y-73357142D01*
X82071428Y-73357142D02*
X82119047Y-73404761D01*
X82071428Y-73452380D01*
X82023809Y-73404761D01*
X82071428Y-73357142D01*
X82071428Y-73452380D01*
X82452380Y-72452380D02*
X83071428Y-72452380D01*
X82738095Y-72833333D01*
X82880952Y-72833333D01*
X82976190Y-72880952D01*
X83023809Y-72928571D01*
X83071428Y-73023809D01*
X83071428Y-73261904D01*
X83023809Y-73357142D01*
X82976190Y-73404761D01*
X82880952Y-73452380D01*
X82595238Y-73452380D01*
X82500000Y-73404761D01*
X82452380Y-73357142D01*
X83357142Y-72452380D02*
X83690476Y-73452380D01*
X84023809Y-72452380D01*
X113052380Y-85366666D02*
X113052380Y-85938095D01*
X113052380Y-85652380D02*
X112052380Y-85652380D01*
X112195238Y-85747619D01*
X112290476Y-85842857D01*
X112338095Y-85938095D01*
X112052380Y-84747619D02*
X112052380Y-84652380D01*
X112100000Y-84557142D01*
X112147619Y-84509523D01*
X112242857Y-84461904D01*
X112433333Y-84414285D01*
X112671428Y-84414285D01*
X112861904Y-84461904D01*
X112957142Y-84509523D01*
X113004761Y-84557142D01*
X113052380Y-84652380D01*
X113052380Y-84747619D01*
X113004761Y-84842857D01*
X112957142Y-84890476D01*
X112861904Y-84938095D01*
X112671428Y-84985714D01*
X112433333Y-84985714D01*
X112242857Y-84938095D01*
X112147619Y-84890476D01*
X112100000Y-84842857D01*
X112052380Y-84747619D01*
X112052380Y-83795238D02*
X112052380Y-83700000D01*
X112100000Y-83604761D01*
X112147619Y-83557142D01*
X112242857Y-83509523D01*
X112433333Y-83461904D01*
X112671428Y-83461904D01*
X112861904Y-83509523D01*
X112957142Y-83557142D01*
X113004761Y-83604761D01*
X113052380Y-83700000D01*
X113052380Y-83795238D01*
X113004761Y-83890476D01*
X112957142Y-83938095D01*
X112861904Y-83985714D01*
X112671428Y-84033333D01*
X112433333Y-84033333D01*
X112242857Y-83985714D01*
X112147619Y-83938095D01*
X112100000Y-83890476D01*
X112052380Y-83795238D01*
X109352380Y-85366666D02*
X109352380Y-85938095D01*
X109352380Y-85652380D02*
X108352380Y-85652380D01*
X108495238Y-85747619D01*
X108590476Y-85842857D01*
X108638095Y-85938095D01*
X108352380Y-84747619D02*
X108352380Y-84652380D01*
X108400000Y-84557142D01*
X108447619Y-84509523D01*
X108542857Y-84461904D01*
X108733333Y-84414285D01*
X108971428Y-84414285D01*
X109161904Y-84461904D01*
X109257142Y-84509523D01*
X109304761Y-84557142D01*
X109352380Y-84652380D01*
X109352380Y-84747619D01*
X109304761Y-84842857D01*
X109257142Y-84890476D01*
X109161904Y-84938095D01*
X108971428Y-84985714D01*
X108733333Y-84985714D01*
X108542857Y-84938095D01*
X108447619Y-84890476D01*
X108400000Y-84842857D01*
X108352380Y-84747619D01*
X108352380Y-83795238D02*
X108352380Y-83700000D01*
X108400000Y-83604761D01*
X108447619Y-83557142D01*
X108542857Y-83509523D01*
X108733333Y-83461904D01*
X108971428Y-83461904D01*
X109161904Y-83509523D01*
X109257142Y-83557142D01*
X109304761Y-83604761D01*
X109352380Y-83700000D01*
X109352380Y-83795238D01*
X109304761Y-83890476D01*
X109257142Y-83938095D01*
X109161904Y-83985714D01*
X108971428Y-84033333D01*
X108733333Y-84033333D01*
X108542857Y-83985714D01*
X108447619Y-83938095D01*
X108400000Y-83890476D01*
X108352380Y-83795238D01*
X104747619Y-85938095D02*
X104700000Y-85890476D01*
X104652380Y-85795238D01*
X104652380Y-85557142D01*
X104700000Y-85461904D01*
X104747619Y-85414285D01*
X104842857Y-85366666D01*
X104938095Y-85366666D01*
X105080952Y-85414285D01*
X105652380Y-85985714D01*
X105652380Y-85366666D01*
X104747619Y-84985714D02*
X104700000Y-84938095D01*
X104652380Y-84842857D01*
X104652380Y-84604761D01*
X104700000Y-84509523D01*
X104747619Y-84461904D01*
X104842857Y-84414285D01*
X104938095Y-84414285D01*
X105080952Y-84461904D01*
X105652380Y-85033333D01*
X105652380Y-84414285D01*
X104652380Y-83795238D02*
X104652380Y-83700000D01*
X104700000Y-83604761D01*
X104747619Y-83557142D01*
X104842857Y-83509523D01*
X105033333Y-83461904D01*
X105271428Y-83461904D01*
X105461904Y-83509523D01*
X105557142Y-83557142D01*
X105604761Y-83604761D01*
X105652380Y-83700000D01*
X105652380Y-83795238D01*
X105604761Y-83890476D01*
X105557142Y-83938095D01*
X105461904Y-83985714D01*
X105271428Y-84033333D01*
X105033333Y-84033333D01*
X104842857Y-83985714D01*
X104747619Y-83938095D01*
X104700000Y-83890476D01*
X104652380Y-83795238D01*
X116752380Y-85966666D02*
X115752380Y-85966666D01*
X115752380Y-85585714D01*
X115800000Y-85490476D01*
X115847619Y-85442857D01*
X115942857Y-85395238D01*
X116085714Y-85395238D01*
X116180952Y-85442857D01*
X116228571Y-85490476D01*
X116276190Y-85585714D01*
X116276190Y-85966666D01*
X115752380Y-84776190D02*
X115752380Y-84585714D01*
X115800000Y-84490476D01*
X115895238Y-84395238D01*
X116085714Y-84347619D01*
X116419047Y-84347619D01*
X116609523Y-84395238D01*
X116704761Y-84490476D01*
X116752380Y-84585714D01*
X116752380Y-84776190D01*
X116704761Y-84871428D01*
X116609523Y-84966666D01*
X116419047Y-85014285D01*
X116085714Y-85014285D01*
X115895238Y-84966666D01*
X115800000Y-84871428D01*
X115752380Y-84776190D01*
X115752380Y-84061904D02*
X115752380Y-83490476D01*
X116752380Y-83776190D02*
X115752380Y-83776190D01*
X100847619Y-85938095D02*
X100800000Y-85890476D01*
X100752380Y-85795238D01*
X100752380Y-85557142D01*
X100800000Y-85461904D01*
X100847619Y-85414285D01*
X100942857Y-85366666D01*
X101038095Y-85366666D01*
X101180952Y-85414285D01*
X101752380Y-85985714D01*
X101752380Y-85366666D01*
X100847619Y-84985714D02*
X100800000Y-84938095D01*
X100752380Y-84842857D01*
X100752380Y-84604761D01*
X100800000Y-84509523D01*
X100847619Y-84461904D01*
X100942857Y-84414285D01*
X101038095Y-84414285D01*
X101180952Y-84461904D01*
X101752380Y-85033333D01*
X101752380Y-84414285D01*
X100752380Y-83795238D02*
X100752380Y-83700000D01*
X100800000Y-83604761D01*
X100847619Y-83557142D01*
X100942857Y-83509523D01*
X101133333Y-83461904D01*
X101371428Y-83461904D01*
X101561904Y-83509523D01*
X101657142Y-83557142D01*
X101704761Y-83604761D01*
X101752380Y-83700000D01*
X101752380Y-83795238D01*
X101704761Y-83890476D01*
X101657142Y-83938095D01*
X101561904Y-83985714D01*
X101371428Y-84033333D01*
X101133333Y-84033333D01*
X100942857Y-83985714D01*
X100847619Y-83938095D01*
X100800000Y-83890476D01*
X100752380Y-83795238D01*
X97952380Y-85966666D02*
X96952380Y-85966666D01*
X96952380Y-85585714D01*
X97000000Y-85490476D01*
X97047619Y-85442857D01*
X97142857Y-85395238D01*
X97285714Y-85395238D01*
X97380952Y-85442857D01*
X97428571Y-85490476D01*
X97476190Y-85585714D01*
X97476190Y-85966666D01*
X96952380Y-84776190D02*
X96952380Y-84585714D01*
X97000000Y-84490476D01*
X97095238Y-84395238D01*
X97285714Y-84347619D01*
X97619047Y-84347619D01*
X97809523Y-84395238D01*
X97904761Y-84490476D01*
X97952380Y-84585714D01*
X97952380Y-84776190D01*
X97904761Y-84871428D01*
X97809523Y-84966666D01*
X97619047Y-85014285D01*
X97285714Y-85014285D01*
X97095238Y-84966666D01*
X97000000Y-84871428D01*
X96952380Y-84776190D01*
X96952380Y-84061904D02*
X96952380Y-83490476D01*
X97952380Y-83776190D02*
X96952380Y-83776190D01*
X94252380Y-85366666D02*
X94252380Y-85938095D01*
X94252380Y-85652380D02*
X93252380Y-85652380D01*
X93395238Y-85747619D01*
X93490476Y-85842857D01*
X93538095Y-85938095D01*
X93252380Y-84747619D02*
X93252380Y-84652380D01*
X93300000Y-84557142D01*
X93347619Y-84509523D01*
X93442857Y-84461904D01*
X93633333Y-84414285D01*
X93871428Y-84414285D01*
X94061904Y-84461904D01*
X94157142Y-84509523D01*
X94204761Y-84557142D01*
X94252380Y-84652380D01*
X94252380Y-84747619D01*
X94204761Y-84842857D01*
X94157142Y-84890476D01*
X94061904Y-84938095D01*
X93871428Y-84985714D01*
X93633333Y-84985714D01*
X93442857Y-84938095D01*
X93347619Y-84890476D01*
X93300000Y-84842857D01*
X93252380Y-84747619D01*
X93252380Y-83795238D02*
X93252380Y-83700000D01*
X93300000Y-83604761D01*
X93347619Y-83557142D01*
X93442857Y-83509523D01*
X93633333Y-83461904D01*
X93871428Y-83461904D01*
X94061904Y-83509523D01*
X94157142Y-83557142D01*
X94204761Y-83604761D01*
X94252380Y-83700000D01*
X94252380Y-83795238D01*
X94204761Y-83890476D01*
X94157142Y-83938095D01*
X94061904Y-83985714D01*
X93871428Y-84033333D01*
X93633333Y-84033333D01*
X93442857Y-83985714D01*
X93347619Y-83938095D01*
X93300000Y-83890476D01*
X93252380Y-83795238D01*
X90552380Y-85366666D02*
X90552380Y-85938095D01*
X90552380Y-85652380D02*
X89552380Y-85652380D01*
X89695238Y-85747619D01*
X89790476Y-85842857D01*
X89838095Y-85938095D01*
X89552380Y-84747619D02*
X89552380Y-84652380D01*
X89600000Y-84557142D01*
X89647619Y-84509523D01*
X89742857Y-84461904D01*
X89933333Y-84414285D01*
X90171428Y-84414285D01*
X90361904Y-84461904D01*
X90457142Y-84509523D01*
X90504761Y-84557142D01*
X90552380Y-84652380D01*
X90552380Y-84747619D01*
X90504761Y-84842857D01*
X90457142Y-84890476D01*
X90361904Y-84938095D01*
X90171428Y-84985714D01*
X89933333Y-84985714D01*
X89742857Y-84938095D01*
X89647619Y-84890476D01*
X89600000Y-84842857D01*
X89552380Y-84747619D01*
X89552380Y-83795238D02*
X89552380Y-83700000D01*
X89600000Y-83604761D01*
X89647619Y-83557142D01*
X89742857Y-83509523D01*
X89933333Y-83461904D01*
X90171428Y-83461904D01*
X90361904Y-83509523D01*
X90457142Y-83557142D01*
X90504761Y-83604761D01*
X90552380Y-83700000D01*
X90552380Y-83795238D01*
X90504761Y-83890476D01*
X90457142Y-83938095D01*
X90361904Y-83985714D01*
X90171428Y-84033333D01*
X89933333Y-84033333D01*
X89742857Y-83985714D01*
X89647619Y-83938095D01*
X89600000Y-83890476D01*
X89552380Y-83795238D01*
X85947619Y-85938095D02*
X85900000Y-85890476D01*
X85852380Y-85795238D01*
X85852380Y-85557142D01*
X85900000Y-85461904D01*
X85947619Y-85414285D01*
X86042857Y-85366666D01*
X86138095Y-85366666D01*
X86280952Y-85414285D01*
X86852380Y-85985714D01*
X86852380Y-85366666D01*
X85947619Y-84985714D02*
X85900000Y-84938095D01*
X85852380Y-84842857D01*
X85852380Y-84604761D01*
X85900000Y-84509523D01*
X85947619Y-84461904D01*
X86042857Y-84414285D01*
X86138095Y-84414285D01*
X86280952Y-84461904D01*
X86852380Y-85033333D01*
X86852380Y-84414285D01*
X85852380Y-83795238D02*
X85852380Y-83700000D01*
X85900000Y-83604761D01*
X85947619Y-83557142D01*
X86042857Y-83509523D01*
X86233333Y-83461904D01*
X86471428Y-83461904D01*
X86661904Y-83509523D01*
X86757142Y-83557142D01*
X86804761Y-83604761D01*
X86852380Y-83700000D01*
X86852380Y-83795238D01*
X86804761Y-83890476D01*
X86757142Y-83938095D01*
X86661904Y-83985714D01*
X86471428Y-84033333D01*
X86233333Y-84033333D01*
X86042857Y-83985714D01*
X85947619Y-83938095D01*
X85900000Y-83890476D01*
X85852380Y-83795238D01*
X82047619Y-85938095D02*
X82000000Y-85890476D01*
X81952380Y-85795238D01*
X81952380Y-85557142D01*
X82000000Y-85461904D01*
X82047619Y-85414285D01*
X82142857Y-85366666D01*
X82238095Y-85366666D01*
X82380952Y-85414285D01*
X82952380Y-85985714D01*
X82952380Y-85366666D01*
X82047619Y-84985714D02*
X82000000Y-84938095D01*
X81952380Y-84842857D01*
X81952380Y-84604761D01*
X82000000Y-84509523D01*
X82047619Y-84461904D01*
X82142857Y-84414285D01*
X82238095Y-84414285D01*
X82380952Y-84461904D01*
X82952380Y-85033333D01*
X82952380Y-84414285D01*
X81952380Y-83795238D02*
X81952380Y-83700000D01*
X82000000Y-83604761D01*
X82047619Y-83557142D01*
X82142857Y-83509523D01*
X82333333Y-83461904D01*
X82571428Y-83461904D01*
X82761904Y-83509523D01*
X82857142Y-83557142D01*
X82904761Y-83604761D01*
X82952380Y-83700000D01*
X82952380Y-83795238D01*
X82904761Y-83890476D01*
X82857142Y-83938095D01*
X82761904Y-83985714D01*
X82571428Y-84033333D01*
X82333333Y-84033333D01*
X82142857Y-83985714D01*
X82047619Y-83938095D01*
X82000000Y-83890476D01*
X81952380Y-83795238D01*
D10*
X126814000Y-77978000D02*
X126814000Y-78358000D01*
X130864000Y-77978000D02*
X131124000Y-77978000D01*
X126814000Y-77978000D02*
X128584000Y-77978000D01*
X126814000Y-85598000D02*
X126814000Y-85218000D01*
X128584000Y-85598000D02*
X126814000Y-85598000D01*
X131124000Y-85598000D02*
X130864000Y-85598000D01*
X121260000Y-73546267D02*
X121260000Y-73203733D01*
X120240000Y-73546267D02*
X120240000Y-73203733D01*
X127210000Y-73671267D02*
X127210000Y-73328733D01*
X126190000Y-73671267D02*
X126190000Y-73328733D01*
X131210000Y-75460000D02*
X131210000Y-72600000D01*
X129290000Y-75460000D02*
X131210000Y-75460000D01*
X129290000Y-72600000D02*
X129290000Y-75460000D01*
X123240000Y-73328733D02*
X123240000Y-73671267D01*
X124260000Y-73328733D02*
X124260000Y-73671267D01*
X120821267Y-84453000D02*
X120478733Y-84453000D01*
X120821267Y-85473000D02*
X120478733Y-85473000D01*
X118590000Y-83850000D02*
X118590000Y-77840000D01*
X125410000Y-81600000D02*
X125410000Y-77840000D01*
X118590000Y-77840000D02*
X119850000Y-77840000D01*
X125410000Y-77840000D02*
X124150000Y-77840000D01*
X98830000Y-82870000D02*
X97500000Y-82870000D01*
X98830000Y-81540000D02*
X98830000Y-82870000D01*
X98830000Y-80270000D02*
X96170000Y-80270000D01*
X96170000Y-80270000D02*
X96170000Y-77670000D01*
X98830000Y-80270000D02*
X98830000Y-77670000D01*
X98830000Y-77670000D02*
X96170000Y-77670000D01*
X117530000Y-82830000D02*
X116200000Y-82830000D01*
X117530000Y-81500000D02*
X117530000Y-82830000D01*
X117530000Y-80230000D02*
X114870000Y-80230000D01*
X114870000Y-80230000D02*
X114870000Y-77630000D01*
X117530000Y-80230000D02*
X117530000Y-77630000D01*
X117530000Y-77630000D02*
X114870000Y-77630000D01*
X91330000Y-82830000D02*
X90000000Y-82830000D01*
X91330000Y-81500000D02*
X91330000Y-82830000D01*
X91330000Y-80230000D02*
X88670000Y-80230000D01*
X88670000Y-80230000D02*
X88670000Y-77630000D01*
X91330000Y-80230000D02*
X91330000Y-77630000D01*
X91330000Y-77630000D02*
X88670000Y-77630000D01*
X113780000Y-82830000D02*
X112450000Y-82830000D01*
X113780000Y-81500000D02*
X113780000Y-82830000D01*
X113780000Y-80230000D02*
X111120000Y-80230000D01*
X111120000Y-80230000D02*
X111120000Y-77630000D01*
X113780000Y-80230000D02*
X113780000Y-77630000D01*
X113780000Y-77630000D02*
X111120000Y-77630000D01*
X95080000Y-82830000D02*
X93750000Y-82830000D01*
X95080000Y-81500000D02*
X95080000Y-82830000D01*
X95080000Y-80230000D02*
X92420000Y-80230000D01*
X92420000Y-80230000D02*
X92420000Y-77630000D01*
X95080000Y-80230000D02*
X95080000Y-77630000D01*
X95080000Y-77630000D02*
X92420000Y-77630000D01*
X110030000Y-82870000D02*
X108700000Y-82870000D01*
X110030000Y-81540000D02*
X110030000Y-82870000D01*
X110030000Y-80270000D02*
X107370000Y-80270000D01*
X107370000Y-80270000D02*
X107370000Y-77670000D01*
X110030000Y-80270000D02*
X110030000Y-77670000D01*
X110030000Y-77670000D02*
X107370000Y-77670000D01*
X87580000Y-82830000D02*
X86250000Y-82830000D01*
X87580000Y-81500000D02*
X87580000Y-82830000D01*
X87580000Y-80230000D02*
X84920000Y-80230000D01*
X84920000Y-80230000D02*
X84920000Y-77630000D01*
X87580000Y-80230000D02*
X87580000Y-77630000D01*
X87580000Y-77630000D02*
X84920000Y-77630000D01*
X106280000Y-82870000D02*
X104950000Y-82870000D01*
X106280000Y-81540000D02*
X106280000Y-82870000D01*
X106280000Y-80270000D02*
X103620000Y-80270000D01*
X103620000Y-80270000D02*
X103620000Y-77670000D01*
X106280000Y-80270000D02*
X106280000Y-77670000D01*
X106280000Y-77670000D02*
X103620000Y-77670000D01*
X83830000Y-82830000D02*
X82500000Y-82830000D01*
X83830000Y-81500000D02*
X83830000Y-82830000D01*
X83830000Y-80230000D02*
X81170000Y-80230000D01*
X81170000Y-80230000D02*
X81170000Y-77630000D01*
X83830000Y-80230000D02*
X83830000Y-77630000D01*
X83830000Y-77630000D02*
X81170000Y-77630000D01*
X102530000Y-82870000D02*
X101200000Y-82870000D01*
X102530000Y-81540000D02*
X102530000Y-82870000D01*
X102530000Y-80270000D02*
X99870000Y-80270000D01*
X99870000Y-80270000D02*
X99870000Y-77670000D01*
X102530000Y-80270000D02*
X102530000Y-77670000D01*
X102530000Y-77670000D02*
X99870000Y-77670000D01*
X93330000Y-72130000D02*
X98070000Y-72130000D01*
X93330000Y-76870000D02*
X98070000Y-76870000D01*
X98070000Y-73260000D02*
X98070000Y-72130000D01*
X98070000Y-76870000D02*
X98070000Y-75740000D01*
X93330000Y-74759000D02*
X93330000Y-74240000D01*
X93330000Y-76870000D02*
X93330000Y-76539000D01*
X93330000Y-72460000D02*
X93330000Y-72130000D01*
X112030000Y-72030000D02*
X116770000Y-72030000D01*
X112030000Y-76770000D02*
X116770000Y-76770000D01*
X116770000Y-73160000D02*
X116770000Y-72030000D01*
X116770000Y-76770000D02*
X116770000Y-75640000D01*
X112030000Y-74659000D02*
X112030000Y-74140000D01*
X112030000Y-76770000D02*
X112030000Y-76439000D01*
X112030000Y-72360000D02*
X112030000Y-72030000D01*
X87603733Y-76910000D02*
X87946267Y-76910000D01*
X87603733Y-75890000D02*
X87946267Y-75890000D01*
X106603733Y-75110000D02*
X106946267Y-75110000D01*
X106603733Y-74090000D02*
X106946267Y-74090000D01*
X87603733Y-75310000D02*
X87946267Y-75310000D01*
X87603733Y-74290000D02*
X87946267Y-74290000D01*
X106603733Y-76710000D02*
X106946267Y-76710000D01*
X106603733Y-75690000D02*
X106946267Y-75690000D01*
X82203733Y-75310000D02*
X82546267Y-75310000D01*
X82203733Y-74290000D02*
X82546267Y-74290000D01*
X101028733Y-75260000D02*
X101371267Y-75260000D01*
X101028733Y-74240000D02*
X101371267Y-74240000D01*
X82203733Y-76910000D02*
X82546267Y-76910000D01*
X82203733Y-75890000D02*
X82546267Y-75890000D01*
X101003733Y-76760000D02*
X101346267Y-76760000D01*
X101003733Y-75740000D02*
X101346267Y-75740000D01*
D11*
X126452380Y-76469833D02*
X127166666Y-76469833D01*
X127309523Y-76517452D01*
X127404761Y-76612690D01*
X127452380Y-76755547D01*
X127452380Y-76850785D01*
X127452380Y-75469833D02*
X127452380Y-76041261D01*
X127452380Y-75755547D02*
X126452380Y-75755547D01*
X126595238Y-75850785D01*
X126690476Y-75946023D01*
X126738095Y-76041261D01*
X119702380Y-74142857D02*
X119226190Y-74476190D01*
X119702380Y-74714285D02*
X118702380Y-74714285D01*
X118702380Y-74333333D01*
X118750000Y-74238095D01*
X118797619Y-74190476D01*
X118892857Y-74142857D01*
X119035714Y-74142857D01*
X119130952Y-74190476D01*
X119178571Y-74238095D01*
X119226190Y-74333333D01*
X119226190Y-74714285D01*
X119702380Y-73190476D02*
X119702380Y-73761904D01*
X119702380Y-73476190D02*
X118702380Y-73476190D01*
X118845238Y-73571428D01*
X118940476Y-73666666D01*
X118988095Y-73761904D01*
X118702380Y-72571428D02*
X118702380Y-72476190D01*
X118750000Y-72380952D01*
X118797619Y-72333333D01*
X118892857Y-72285714D01*
X119083333Y-72238095D01*
X119321428Y-72238095D01*
X119511904Y-72285714D01*
X119607142Y-72333333D01*
X119654761Y-72380952D01*
X119702380Y-72476190D01*
X119702380Y-72571428D01*
X119654761Y-72666666D01*
X119607142Y-72714285D01*
X119511904Y-72761904D01*
X119321428Y-72809523D01*
X119083333Y-72809523D01*
X118892857Y-72761904D01*
X118797619Y-72714285D01*
X118750000Y-72666666D01*
X118702380Y-72571428D01*
X125752380Y-73666666D02*
X125276190Y-74000000D01*
X125752380Y-74238095D02*
X124752380Y-74238095D01*
X124752380Y-73857142D01*
X124800000Y-73761904D01*
X124847619Y-73714285D01*
X124942857Y-73666666D01*
X125085714Y-73666666D01*
X125180952Y-73714285D01*
X125228571Y-73761904D01*
X125276190Y-73857142D01*
X125276190Y-74238095D01*
X125752380Y-73190476D02*
X125752380Y-73000000D01*
X125704761Y-72904761D01*
X125657142Y-72857142D01*
X125514285Y-72761904D01*
X125323809Y-72714285D01*
X124942857Y-72714285D01*
X124847619Y-72761904D01*
X124800000Y-72809523D01*
X124752380Y-72904761D01*
X124752380Y-73095238D01*
X124800000Y-73190476D01*
X124847619Y-73238095D01*
X124942857Y-73285714D01*
X125180952Y-73285714D01*
X125276190Y-73238095D01*
X125323809Y-73190476D01*
X125371428Y-73095238D01*
X125371428Y-72904761D01*
X125323809Y-72809523D01*
X125276190Y-72761904D01*
X125180952Y-72714285D01*
X128702380Y-74313095D02*
X127702380Y-74313095D01*
X127702380Y-74075000D01*
X127750000Y-73932142D01*
X127845238Y-73836904D01*
X127940476Y-73789285D01*
X128130952Y-73741666D01*
X128273809Y-73741666D01*
X128464285Y-73789285D01*
X128559523Y-73836904D01*
X128654761Y-73932142D01*
X128702380Y-74075000D01*
X128702380Y-74313095D01*
X128702380Y-72789285D02*
X128702380Y-73360714D01*
X128702380Y-73075000D02*
X127702380Y-73075000D01*
X127845238Y-73170238D01*
X127940476Y-73265476D01*
X127988095Y-73360714D01*
X122607142Y-73666666D02*
X122654761Y-73714285D01*
X122702380Y-73857142D01*
X122702380Y-73952380D01*
X122654761Y-74095238D01*
X122559523Y-74190476D01*
X122464285Y-74238095D01*
X122273809Y-74285714D01*
X122130952Y-74285714D01*
X121940476Y-74238095D01*
X121845238Y-74190476D01*
X121750000Y-74095238D01*
X121702380Y-73952380D01*
X121702380Y-73857142D01*
X121750000Y-73714285D01*
X121797619Y-73666666D01*
X121797619Y-73285714D02*
X121750000Y-73238095D01*
X121702380Y-73142857D01*
X121702380Y-72904761D01*
X121750000Y-72809523D01*
X121797619Y-72761904D01*
X121892857Y-72714285D01*
X121988095Y-72714285D01*
X122130952Y-72761904D01*
X122702380Y-73333333D01*
X122702380Y-72714285D01*
X123721833Y-85320142D02*
X123674214Y-85367761D01*
X123531357Y-85415380D01*
X123436119Y-85415380D01*
X123293261Y-85367761D01*
X123198023Y-85272523D01*
X123150404Y-85177285D01*
X123102785Y-84986809D01*
X123102785Y-84843952D01*
X123150404Y-84653476D01*
X123198023Y-84558238D01*
X123293261Y-84463000D01*
X123436119Y-84415380D01*
X123531357Y-84415380D01*
X123674214Y-84463000D01*
X123721833Y-84510619D01*
X124674214Y-85415380D02*
X124102785Y-85415380D01*
X124388500Y-85415380D02*
X124388500Y-84415380D01*
X124293261Y-84558238D01*
X124198023Y-84653476D01*
X124102785Y-84701095D01*
X118702380Y-77011904D02*
X119511904Y-77011904D01*
X119607142Y-76964285D01*
X119654761Y-76916666D01*
X119702380Y-76821428D01*
X119702380Y-76630952D01*
X119654761Y-76535714D01*
X119607142Y-76488095D01*
X119511904Y-76440476D01*
X118702380Y-76440476D01*
X118797619Y-76011904D02*
X118750000Y-75964285D01*
X118702380Y-75869047D01*
X118702380Y-75630952D01*
X118750000Y-75535714D01*
X118797619Y-75488095D01*
X118892857Y-75440476D01*
X118988095Y-75440476D01*
X119130952Y-75488095D01*
X119702380Y-76059523D01*
X119702380Y-75440476D01*
X89904761Y-73452380D02*
X89571428Y-72976190D01*
X89333333Y-73452380D02*
X89333333Y-72452380D01*
X89714285Y-72452380D01*
X89809523Y-72500000D01*
X89857142Y-72547619D01*
X89904761Y-72642857D01*
X89904761Y-72785714D01*
X89857142Y-72880952D01*
X89809523Y-72928571D01*
X89714285Y-72976190D01*
X89333333Y-72976190D01*
X90190476Y-72452380D02*
X90523809Y-73452380D01*
X90857142Y-72452380D01*
X91142857Y-72547619D02*
X91190476Y-72500000D01*
X91285714Y-72452380D01*
X91523809Y-72452380D01*
X91619047Y-72500000D01*
X91666666Y-72547619D01*
X91714285Y-72642857D01*
X91714285Y-72738095D01*
X91666666Y-72880952D01*
X91095238Y-73452380D01*
X91714285Y-73452380D01*
X108604761Y-73052380D02*
X108271428Y-72576190D01*
X108033333Y-73052380D02*
X108033333Y-72052380D01*
X108414285Y-72052380D01*
X108509523Y-72100000D01*
X108557142Y-72147619D01*
X108604761Y-72242857D01*
X108604761Y-72385714D01*
X108557142Y-72480952D01*
X108509523Y-72528571D01*
X108414285Y-72576190D01*
X108033333Y-72576190D01*
X108890476Y-72052380D02*
X109223809Y-73052380D01*
X109557142Y-72052380D01*
X110414285Y-73052380D02*
X109842857Y-73052380D01*
X110128571Y-73052380D02*
X110128571Y-72052380D01*
X110033333Y-72195238D01*
X109938095Y-72290476D01*
X109842857Y-72338095D01*
X90333333Y-76852380D02*
X90000000Y-76376190D01*
X89761904Y-76852380D02*
X89761904Y-75852380D01*
X90142857Y-75852380D01*
X90238095Y-75900000D01*
X90285714Y-75947619D01*
X90333333Y-76042857D01*
X90333333Y-76185714D01*
X90285714Y-76280952D01*
X90238095Y-76328571D01*
X90142857Y-76376190D01*
X89761904Y-76376190D01*
X90904761Y-76280952D02*
X90809523Y-76233333D01*
X90761904Y-76185714D01*
X90714285Y-76090476D01*
X90714285Y-76042857D01*
X90761904Y-75947619D01*
X90809523Y-75900000D01*
X90904761Y-75852380D01*
X91095238Y-75852380D01*
X91190476Y-75900000D01*
X91238095Y-75947619D01*
X91285714Y-76042857D01*
X91285714Y-76090476D01*
X91238095Y-76185714D01*
X91190476Y-76233333D01*
X91095238Y-76280952D01*
X90904761Y-76280952D01*
X90809523Y-76328571D01*
X90761904Y-76376190D01*
X90714285Y-76471428D01*
X90714285Y-76661904D01*
X90761904Y-76757142D01*
X90809523Y-76804761D01*
X90904761Y-76852380D01*
X91095238Y-76852380D01*
X91190476Y-76804761D01*
X91238095Y-76757142D01*
X91285714Y-76661904D01*
X91285714Y-76471428D01*
X91238095Y-76376190D01*
X91190476Y-76328571D01*
X91095238Y-76280952D01*
X109333333Y-75052380D02*
X109000000Y-74576190D01*
X108761904Y-75052380D02*
X108761904Y-74052380D01*
X109142857Y-74052380D01*
X109238095Y-74100000D01*
X109285714Y-74147619D01*
X109333333Y-74242857D01*
X109333333Y-74385714D01*
X109285714Y-74480952D01*
X109238095Y-74528571D01*
X109142857Y-74576190D01*
X108761904Y-74576190D01*
X109666666Y-74052380D02*
X110333333Y-74052380D01*
X109904761Y-75052380D01*
X90333333Y-75452380D02*
X90000000Y-74976190D01*
X89761904Y-75452380D02*
X89761904Y-74452380D01*
X90142857Y-74452380D01*
X90238095Y-74500000D01*
X90285714Y-74547619D01*
X90333333Y-74642857D01*
X90333333Y-74785714D01*
X90285714Y-74880952D01*
X90238095Y-74928571D01*
X90142857Y-74976190D01*
X89761904Y-74976190D01*
X91190476Y-74452380D02*
X91000000Y-74452380D01*
X90904761Y-74500000D01*
X90857142Y-74547619D01*
X90761904Y-74690476D01*
X90714285Y-74880952D01*
X90714285Y-75261904D01*
X90761904Y-75357142D01*
X90809523Y-75404761D01*
X90904761Y-75452380D01*
X91095238Y-75452380D01*
X91190476Y-75404761D01*
X91238095Y-75357142D01*
X91285714Y-75261904D01*
X91285714Y-75023809D01*
X91238095Y-74928571D01*
X91190476Y-74880952D01*
X91095238Y-74833333D01*
X90904761Y-74833333D01*
X90809523Y-74880952D01*
X90761904Y-74928571D01*
X90714285Y-75023809D01*
X109333333Y-76752380D02*
X109000000Y-76276190D01*
X108761904Y-76752380D02*
X108761904Y-75752380D01*
X109142857Y-75752380D01*
X109238095Y-75800000D01*
X109285714Y-75847619D01*
X109333333Y-75942857D01*
X109333333Y-76085714D01*
X109285714Y-76180952D01*
X109238095Y-76228571D01*
X109142857Y-76276190D01*
X108761904Y-76276190D01*
X110238095Y-75752380D02*
X109761904Y-75752380D01*
X109714285Y-76228571D01*
X109761904Y-76180952D01*
X109857142Y-76133333D01*
X110095238Y-76133333D01*
X110190476Y-76180952D01*
X110238095Y-76228571D01*
X110285714Y-76323809D01*
X110285714Y-76561904D01*
X110238095Y-76657142D01*
X110190476Y-76704761D01*
X110095238Y-76752380D01*
X109857142Y-76752380D01*
X109761904Y-76704761D01*
X109714285Y-76657142D01*
X84833333Y-75252380D02*
X84500000Y-74776190D01*
X84261904Y-75252380D02*
X84261904Y-74252380D01*
X84642857Y-74252380D01*
X84738095Y-74300000D01*
X84785714Y-74347619D01*
X84833333Y-74442857D01*
X84833333Y-74585714D01*
X84785714Y-74680952D01*
X84738095Y-74728571D01*
X84642857Y-74776190D01*
X84261904Y-74776190D01*
X85690476Y-74585714D02*
X85690476Y-75252380D01*
X85452380Y-74204761D02*
X85214285Y-74919047D01*
X85833333Y-74919047D01*
X103633333Y-75202380D02*
X103300000Y-74726190D01*
X103061904Y-75202380D02*
X103061904Y-74202380D01*
X103442857Y-74202380D01*
X103538095Y-74250000D01*
X103585714Y-74297619D01*
X103633333Y-74392857D01*
X103633333Y-74535714D01*
X103585714Y-74630952D01*
X103538095Y-74678571D01*
X103442857Y-74726190D01*
X103061904Y-74726190D01*
X103966666Y-74202380D02*
X104585714Y-74202380D01*
X104252380Y-74583333D01*
X104395238Y-74583333D01*
X104490476Y-74630952D01*
X104538095Y-74678571D01*
X104585714Y-74773809D01*
X104585714Y-75011904D01*
X104538095Y-75107142D01*
X104490476Y-75154761D01*
X104395238Y-75202380D01*
X104109523Y-75202380D01*
X104014285Y-75154761D01*
X103966666Y-75107142D01*
X84833333Y-76752380D02*
X84500000Y-76276190D01*
X84261904Y-76752380D02*
X84261904Y-75752380D01*
X84642857Y-75752380D01*
X84738095Y-75800000D01*
X84785714Y-75847619D01*
X84833333Y-75942857D01*
X84833333Y-76085714D01*
X84785714Y-76180952D01*
X84738095Y-76228571D01*
X84642857Y-76276190D01*
X84261904Y-76276190D01*
X85214285Y-75847619D02*
X85261904Y-75800000D01*
X85357142Y-75752380D01*
X85595238Y-75752380D01*
X85690476Y-75800000D01*
X85738095Y-75847619D01*
X85785714Y-75942857D01*
X85785714Y-76038095D01*
X85738095Y-76180952D01*
X85166666Y-76752380D01*
X85785714Y-76752380D01*
X103633333Y-76652380D02*
X103300000Y-76176190D01*
X103061904Y-76652380D02*
X103061904Y-75652380D01*
X103442857Y-75652380D01*
X103538095Y-75700000D01*
X103585714Y-75747619D01*
X103633333Y-75842857D01*
X103633333Y-75985714D01*
X103585714Y-76080952D01*
X103538095Y-76128571D01*
X103442857Y-76176190D01*
X103061904Y-76176190D01*
X104585714Y-76652380D02*
X104014285Y-76652380D01*
X104300000Y-76652380D02*
X104300000Y-75652380D01*
X104204761Y-75795238D01*
X104109523Y-75890476D01*
X104014285Y-75938095D01*
M02*
